NAME,EMAIL,SEMESTER
Sharath Shankaran,example@example.com,S3
Niranjan Krishnan,exampled5@example.com,S3
Vishnu K,example@example.com,S3
Subin Siby,example3@example.com,S3
Krishnaja R.Nair,example@example.com,S3
Khadija Mohamed Haneefa,example@example.com,S3
Manjumaney C.M,example@example.com,S3
Anila Dinesh,example47@example.com,S3
Aishwarya Rajan,example@example.com,S3
