<?xml version="1.0" encoding="UTF-8" standalone="no"?>
<!-- Created with Inkscape (http://www.inkscape.org/) -->

<svg
   xmlns:dc="http://purl.org/dc/elements/1.1/"
   xmlns:cc="http://creativecommons.org/ns#"
   xmlns:rdf="http://www.w3.org/1999/02/22-rdf-syntax-ns#"
   xmlns:svg="http://www.w3.org/2000/svg"
   xmlns="http://www.w3.org/2000/svg"
   xmlns:xlink="http://www.w3.org/1999/xlink"
   xmlns:sodipodi="http://sodipodi.sourceforge.net/DTD/sodipodi-0.dtd"
   xmlns:inkscape="http://www.inkscape.org/namespaces/inkscape"
   width="700"
   height="900"
   viewBox="0 0 700 900"
   version="1.1"
   id="SVGRoot"
   inkscape:version="0.92.3 (2405546, 2018-03-11)"
   sodipodi:docname="frame.svg"
   inkscape:export-filename="/home/mint/Other/FOSSers/artwork/posters/thengOS-release/frame-plane.svg.png"
   inkscape:export-xdpi="96"
   inkscape:export-ydpi="96">
  <sodipodi:namedview
     id="base"
     pagecolor="#ffffff"
     bordercolor="#666666"
     borderopacity="1.0"
     inkscape:pageopacity="0.0"
     inkscape:pageshadow="2"
     inkscape:zoom="1.2727922"
     inkscape:cx="295.25858"
     inkscape:cy="647.23174"
     inkscape:document-units="px"
     inkscape:current-layer="layer1"
     showgrid="false"
     inkscape:window-width="1916"
     inkscape:window-height="984"
     inkscape:window-x="0"
     inkscape:window-y="62"
     inkscape:window-maximized="0"
     inkscape:snap-page="false"
     inkscape:snap-grids="true" />
  <defs
     id="defs18">
    <inkscape:perspective
       sodipodi:type="inkscape:persp3d"
       inkscape:vp_x="0 : 960 : 1"
       inkscape:vp_y="0 : 1000 : 0"
       inkscape:vp_z="1920 : 960 : 1"
       inkscape:persp3d-origin="960 : 640 : 1"
       id="perspective1151" />
    <filter
       style="color-interpolation-filters:sRGB"
       inkscape:label="Drop Shadow"
       id="filter732">
      <feFlood
         flood-opacity="0.498039"
         flood-color="rgb(0,0,0)"
         result="flood"
         id="feFlood722" />
      <feComposite
         in="flood"
         in2="SourceGraphic"
         operator="in"
         result="composite1"
         id="feComposite724" />
      <feGaussianBlur
         in="composite1"
         stdDeviation="10.9375"
         result="blur"
         id="feGaussianBlur726" />
      <feOffset
         dx="6"
         dy="6"
         result="offset"
         id="feOffset728" />
      <feComposite
         in="SourceGraphic"
         in2="offset"
         operator="over"
         result="composite2"
         id="feComposite730" />
    </filter>
    <filter
       style="color-interpolation-filters:sRGB"
       inkscape:label="Drop Shadow"
       id="filter900">
      <feFlood
         flood-opacity="0.498039"
         flood-color="rgb(0,0,0)"
         result="flood"
         id="feFlood890" />
      <feComposite
         in="flood"
         in2="SourceGraphic"
         operator="in"
         result="composite1"
         id="feComposite892" />
      <feGaussianBlur
         in="composite1"
         stdDeviation="8.33333"
         result="blur"
         id="feGaussianBlur894" />
      <feOffset
         dx="6"
         dy="-9.6"
         result="offset"
         id="feOffset896" />
      <feComposite
         in="SourceGraphic"
         in2="offset"
         operator="over"
         result="composite2"
         id="feComposite898" />
    </filter>
    <filter
       inkscape:label="Opacity"
       style="color-interpolation-filters:sRGB"
       id="filter1752">
      <feColorMatrix
         values="1 0 0 0 0 0 1 0 0 0 0 0 1 0 0 0 0 0 224.7 -130.2 "
         result="colormatrix"
         id="feColorMatrix1748" />
      <feComposite
         in2="colormatrix"
         operator="arithmetic"
         k2="0.757812"
         result="composite"
         id="feComposite1750"
         k1="0"
         k3="0"
         k4="0" />
    </filter>
    <filter
       style="color-interpolation-filters:sRGB"
       inkscape:label="Drop Shadow"
       id="filter1824">
      <feFlood
         flood-opacity="0.498039"
         flood-color="rgb(0,0,0)"
         result="flood"
         id="feFlood1814" />
      <feComposite
         in="flood"
         in2="SourceGraphic"
         operator="in"
         result="composite1"
         id="feComposite1816" />
      <feGaussianBlur
         in="composite1"
         stdDeviation="6.25"
         result="blur"
         id="feGaussianBlur1818" />
      <feOffset
         dx="-15.4"
         dy="-6.8"
         result="offset"
         id="feOffset1820" />
      <feComposite
         in="SourceGraphic"
         in2="offset"
         operator="over"
         result="composite2"
         id="feComposite1822" />
    </filter>
    <filter
       style="color-interpolation-filters:sRGB"
       inkscape:label="Drop Shadow"
       id="filter2111">
      <feFlood
         flood-opacity="0.498039"
         flood-color="rgb(0,0,0)"
         result="flood"
         id="feFlood2101" />
      <feComposite
         in="flood"
         in2="SourceGraphic"
         operator="in"
         result="composite1"
         id="feComposite2103" />
      <feGaussianBlur
         in="composite1"
         stdDeviation="1"
         result="blur"
         id="feGaussianBlur2105" />
      <feOffset
         dx="8.3"
         dy="8.33333"
         result="offset"
         id="feOffset2107" />
      <feComposite
         in="SourceGraphic"
         in2="offset"
         operator="over"
         result="composite2"
         id="feComposite2109" />
    </filter>
    <linearGradient
       gradientUnits="userSpaceOnUse"
       id="b"
       x1="160.008"
       y1="40.007999"
       x2="100.008"
       y2="180"
       gradientTransform="matrix(0.44441609,0,0,0.44441609,109.30465,1786.8275)">
      <stop
         stop-color="#37aee2"
         offset="0"
         id="stop2" />
      <stop
         stop-color="#1e96c8"
         offset="1"
         id="stop4" />
    </linearGradient>
    <linearGradient
       gradientUnits="userSpaceOnUse"
       gradientTransform="matrix(0.48526153,0,0,0.40700869,109.30465,1786.8275)"
       id="w"
       x1="123.64119"
       y1="131.02763"
       x2="146.52715"
       y2="174.70815">
      <stop
         stop-color="#eff7fc"
         offset="0"
         id="stop7" />
      <stop
         stop-color="#fff"
         offset="1"
         id="stop9" />
    </linearGradient>
    <filter
       style="color-interpolation-filters:sRGB"
       inkscape:label="Drop Shadow"
       id="filter4867">
      <feFlood
         flood-opacity="1"
         flood-color="rgb(0,0,0)"
         result="flood"
         id="feFlood4857" />
      <feComposite
         in="flood"
         in2="SourceGraphic"
         operator="in"
         result="composite1"
         id="feComposite4859" />
      <feGaussianBlur
         in="composite1"
         stdDeviation="4.66321"
         result="blur"
         id="feGaussianBlur4861" />
      <feOffset
         dx="6"
         dy="6"
         result="offset"
         id="feOffset4863" />
      <feComposite
         in="SourceGraphic"
         in2="offset"
         operator="over"
         result="composite2"
         id="feComposite4865" />
    </filter>
    <filter
       style="color-interpolation-filters:sRGB"
       inkscape:label="Drop Shadow"
       id="filter4867-6">
      <feFlood
         flood-opacity="1"
         flood-color="rgb(0,0,0)"
         result="flood"
         id="feFlood4857-7" />
      <feComposite
         in="flood"
         in2="SourceGraphic"
         operator="in"
         result="composite1"
         id="feComposite4859-5" />
      <feGaussianBlur
         in="composite1"
         stdDeviation="4.66321"
         result="blur"
         id="feGaussianBlur4861-3" />
      <feOffset
         dx="6"
         dy="6"
         result="offset"
         id="feOffset4863-5" />
      <feComposite
         in="SourceGraphic"
         in2="offset"
         operator="over"
         result="composite2"
         id="feComposite4865-6" />
    </filter>
    <filter
       style="color-interpolation-filters:sRGB"
       inkscape:label="Drop Shadow"
       id="filter1824-2">
      <feFlood
         flood-opacity="0.498039"
         flood-color="rgb(0,0,0)"
         result="flood"
         id="feFlood1814-9" />
      <feComposite
         in="flood"
         in2="SourceGraphic"
         operator="in"
         result="composite1"
         id="feComposite1816-1" />
      <feGaussianBlur
         in="composite1"
         stdDeviation="6.25"
         result="blur"
         id="feGaussianBlur1818-2" />
      <feOffset
         dx="-15.4"
         dy="-6.8"
         result="offset"
         id="feOffset1820-7" />
      <feComposite
         in="SourceGraphic"
         in2="offset"
         operator="over"
         result="composite2"
         id="feComposite1822-0" />
    </filter>
    <filter
       style="color-interpolation-filters:sRGB"
       inkscape:label="Drop Shadow"
       id="filter1188">
      <feFlood
         flood-opacity="0.498039"
         flood-color="rgb(0,0,0)"
         result="flood"
         id="feFlood1178" />
      <feComposite
         in="flood"
         in2="SourceGraphic"
         operator="in"
         result="composite1"
         id="feComposite1180" />
      <feGaussianBlur
         in="composite1"
         stdDeviation="6"
         result="blur"
         id="feGaussianBlur1182" />
      <feOffset
         dx="0"
         dy="0"
         result="offset"
         id="feOffset1184" />
      <feComposite
         in="SourceGraphic"
         in2="offset"
         operator="over"
         result="composite2"
         id="feComposite1186" />
    </filter>
    <filter
       style="color-interpolation-filters:sRGB"
       inkscape:label="Drop Shadow"
       id="filter1200">
      <feFlood
         flood-opacity="0.498039"
         flood-color="rgb(0,0,0)"
         result="flood"
         id="feFlood1190" />
      <feComposite
         in="flood"
         in2="SourceGraphic"
         operator="in"
         result="composite1"
         id="feComposite1192" />
      <feGaussianBlur
         in="composite1"
         stdDeviation="6"
         result="blur"
         id="feGaussianBlur1194" />
      <feOffset
         dx="0"
         dy="0"
         result="offset"
         id="feOffset1196" />
      <feComposite
         in="SourceGraphic"
         in2="offset"
         operator="over"
         result="composite2"
         id="feComposite1198" />
    </filter>
  </defs>
  <metadata
     id="metadata21">
    <rdf:RDF>
      <cc:Work
         rdf:about="">
        <dc:format>image/svg+xml</dc:format>
        <dc:type
           rdf:resource="http://purl.org/dc/dcmitype/StillImage" />
        <dc:title />
      </cc:Work>
    </rdf:RDF>
  </metadata>
  <g
     id="layer1"
     inkscape:groupmode="layer"
     inkscape:label="Layer 1"
     transform="translate(0,-1020)">
    <text
       xml:space="preserve"
       style="font-style:normal;font-weight:normal;font-size:40px;line-height:1.25;font-family:sans-serif;letter-spacing:0px;word-spacing:0px;fill:#000000;fill-opacity:1;stroke:none"
       x="1245.7144"
       y="1868.5714"
       id="text1503"><tspan
         sodipodi:role="line"
         id="tspan1501"
         x="1245.7144"
         y="1903.962" /></text>
    <flowRoot
       xml:space="preserve"
       id="flowRoot1520"
       style="font-style:normal;font-weight:normal;font-size:40px;line-height:1.25;font-family:sans-serif;letter-spacing:0px;word-spacing:0px;fill:#000000;fill-opacity:1;stroke:none"><flowRegion
         id="flowRegion1522"><rect
           id="rect1524"
           width="742.85712"
           height="125.71429"
           x="2200"
           y="834.28571" /></flowRegion><flowPara
         id="flowPara1526" /></flowRoot>    <flowRoot
       xml:space="preserve"
       id="flowRoot1528"
       style="font-style:normal;font-weight:normal;font-size:40px;line-height:1.25;font-family:sans-serif;letter-spacing:0px;word-spacing:0px;fill:#000000;fill-opacity:1;stroke:none"><flowRegion
         id="flowRegion1530"><rect
           id="rect1532"
           width="91.428574"
           height="91.428574"
           x="2257.1428"
           y="942.85712" /></flowRegion><flowPara
         id="flowPara1534" /></flowRoot>    <flowRoot
       xml:space="preserve"
       id="flowRoot1536"
       style="font-style:normal;font-weight:normal;font-size:40px;line-height:1.25;font-family:sans-serif;letter-spacing:0px;word-spacing:0px;fill:#000000;fill-opacity:1;stroke:none"><flowRegion
         id="flowRegion1538"><rect
           id="rect1540"
           width="40"
           height="51.42857"
           x="2314.2856"
           y="937.14288" /></flowRegion><flowPara
         id="flowPara1542" /></flowRoot>    <rect
       style="opacity:1;fill:#ffffff;fill-opacity:1;stroke:none;stroke-width:0.83272845"
       id="rect1163"
       width="700"
       height="900"
       x="0"
       y="1020" />
    <path
       style="opacity:0.6;fill:#ebe5ff;fill-opacity:1;stroke:none;stroke-width:0.88794351;filter:url(#filter1200)"
       d="m 717.23413,-0.4729352 c -0.35207,0 -0.6847,0.0631954 -0.99231,0.17185821 L 712.31671,271.27257 H 1916.3913 c 1.4893,0 2.6885,-1.06647 2.6885,-2.39293 V 1.9216227 c 0,-1.32645553 -1.1992,-2.3945579 -2.6885,-2.3945579 z"
       id="rect894"
       inkscape:connector-curvature="0"
       transform="matrix(0.77551614,0,0,0.65581629,-670.34524,1020.5801)"
       sodipodi:nodetypes="sccsssss" />
    <g
       id="g1111">
      <image
         transform="matrix(0.44932706,0,0,0.44932706,-81.35396,1012.2844)"
         style="opacity:1;filter:url(#filter1824)"
         width="400"
         height="157.33333"
         preserveAspectRatio="none"
         xlink:href="data:image/png;base64,iVBORw0KGgoAAAANSUhEUgAAASwAAAB2CAYAAAByH65QAAAdUHpUWHRSYXcgcHJvZmlsZSB0eXBl IGV4aWYAAHjarZtpkiQ5kp3/4xQ8AjbFchwsChHegMfn9yyy9pqZpggzqjMiPdzNAF3eorAO/n/+ 9wv/iz+tjxaq8fdsLfKnzjrz4ocRf/6s7+8U6/f39yefXz+lv74eevv1ocxLhe/l55/j1+vpt9d/ feC372nxk/3pQuP8+sX+6y9m/XX98bcL5Z9vRSvSz78+H+avH0r++UX6dYH1a3ttjv7nLexf7/ff djJ+/hf0Vx1/XfY//t2J3jXuU3L2kkrk76abF1ZWRlklhjL5VorelErj58q/9Er6FS+C8eetPf78 bJHX/xxs/e5nb3/9Rf8jd39s4W8Z/P0n4hX+/ItW/z2D9beUl78Fvv3+nQv9yy+S/e0D5ff75z/f 2PKvn3LMf1lRnmn+Yzu//vfeHe/5z+5WbYS//SrL7xbht8vwxs0myvexxlfnf8bP/fuafA0q/VAe l9rZfJ00UyaFL9V0Q1rpJU+X7ycd1liz5873nE8u32uj9Dzz+VJd9ZVe7mT7kvhcDqVQSg0l/76W 9N13fvc7aXDnm3hrTlws8ZH/9iv8T2/4T77eO6qjlBRMUv9Tgimrg1iGMqe/eRsJSe9X3uwL8G9f v/8Jf0psIYP2hXmwwRX3zyW2pT9qq3wFUHif8f2n7lK/ylr+qqRyb2MxqZCC2FKx1FLsOfeUasmD BC1WnkvNmwwks3xZZKahGrkZ1BH35jM9fe/Nln9eB+DIj9F9ndzQjySrVqN+eh3U0LJi1cyadRs2 bYVWWm3WWutNSLl66bVbb7330Wdfo4w6bLTRxxhzrJlnAUhtttnnmHOuxT1XDcsWn168Y62dd9l1 226777HnXofyOfXYaaefceZZN99ywZTbbr/jzrs8OaUUvLp58+7Dp69Hrb3y6rPXXn/jzbd+z9qv rP7j6/8ha+lX1vKXKb2v/541Xu1dF/oukYQzppyRsVwTGe/KAAWdlbM4Uq1ZmVPO4sx0hWUWacrN TXGF1Ehh9ZTtpd9z90fm/uO8BWL9P+Ut/yeZC0rd/4fM5eDlb3n7l6zd9fFX+TKkLlRMY6H7Xtov NgfyyNrdz0u8eVcAiEUfL33cvbdbenRA7QtMXm+5v1LHLd0IZU4b9GHdc9xUl1oEUrqbXiMSua8O bE3rZ16PGew75lEElKymtetrxIWmpIHaKc3tstC3zwxkMt67nWD2fthzuitTP+vF0/Yoqd01T905 Hm+E+M12j/QGlynD+7r9rJ5iMAJZ1zqNAmMp+d7efb+VLleuc7G5vG28kbendOvrbOnApfOBA7F3 21w0nsB9YY8zvg3N7btTZv3U1Eri36tev7sRpZjmOONlQL2Xy1LzHrHMM1t6rD8sitOzii4C4j4a H73mFaq45ETF2vbyQx6J1ChvzHXWqObkavgzeyxrjPAo/UuC4Xu7gHzlVm/DGyPuW92N0umbe56y 3u5k6iyzAfXDawDdKLyjjxX6ieZp3t5uprvKMvDv3rpAR1904Myxsf10hu/xapkJGlqv9UhKtP68 bnwzUG/5W3RunXW2S9LOm8XnS/m0R9Pn4hSB9zSp6T1vXB7bJqKLuh5tH9pgBkj6bMori1TTfG0t AJsbRTuP6r9xzpI/heUEuSSj7hPdlutNdItNmuRUKvse673V2xN9PIZb7fc2ongedV5bJjpwgwCf TxKGAUwYpZ/2bCyl3VnStHAht0ZjaXt0IesgW23Mc4hmIv9eLvJvDHo671ZO2QoptW9pjc5V6tmU e6hs+OzcKzehslAZzwk9ySgUSQOjaL8tzJqbhbdyjQ/eDK5t0nV82y20YWA3vP8NOKmxmwXj0p+U ZAalG9enoKiOThr2WveW7PdlbwN1YIXcJqCi3B7IzyYXFyIYl7K9QsiV++uAYWQHr1EsQFXNLKWu cq73jXpJp5QHYrzB9ncNVF0+i6zde4dd2+zO0SGImgMHvHooHO2UrTj9u+IAxtCqByVUxwC07FJz QVXgebyTJ+DY2S+wtwlpOzfuSvPYMdofCjBEEUVKl3Sk60hHhBN5kSZuob/K3gB1X6dPo7V3XIB1 T9ZZd/SVWcIjVburS96ot9l0MNX7bPEWaphshkK6Itg3jqc6aYmD0H/GjW/bdx1Mj667mi8qrNVx BAuZn9CDqVpWj1AKAX0xJfEIcDwzo1AiudmkjC3QyGnUQyGteB8RSVRgAYINRAPTQbVLOVXZrEIh E+mZ6UXtsm9SfkAnqJIVUrTgL0DeQcALjwA9cA1NAYS0ZcAsfVSehUam6M932X0i8gS7tpnhFTQo idmTNLw8Nj2dgWI+8+BrMA/0M1I2W0e97tDafuwSZLjFVGbl5TWsAhl8tFNd5U3vQwBunjOxbOyY elrzB+xKbqByaJNehGaMCp2LjVBv7BPcbVTQTpDwqzk65UNTkyMwAG2n98c/fw9/e4FP7Q44sjL4 l4T75b9tpjQvb1opqwD30NwZ0WK7DJJcA8DP7vKzTYw6CO47dsASPixUDEAL773ihbRvacb2aYp7 uk+2ugAbwFeKbR6nFh8gRAM9a1PI0Mf83teJblXyQIQFCsPbGSVCrmYa/Hcm2Es++wrAr7lYHHzb lDj/XJeXKAPpCLAFBBukeQCPcZONWDYlAf5OmodUPbjl1ABEE+J21W9Un5EvNBRNB39QoQ9uBQrg Jqr5NZC8vr1s+MmkKeYWJfwphrC90m7LBRQldriq9LTL42Lr+T6QN/RD4CE9mLsjGuiy6wXNQ29m ZJNZ9BnQ6GftWG4UQ4EuXAIISFR9sXhrqp7raJmuETdwBcTBhgkrDeTpHeChTY8hkSFguLbhHgGv SQgbZj3TBGn4Feg7pZng2gGIXizVAF00vdjsoqMHIjgVBKvvHAkZx16h3Abgj2QDo8lNfxOBQ7zw 6+edjaaoG5Q/AjtW04HeKQwDIZ+v2WEEeMXrpgjz6ckvNDXnBlLo5XLm4hpgEeD51C3dgOQ21PmT +t05gOC0+t7Vu8j+nTtcoIRmhZdOyvC6EoraqhRPIghxtSRcblBchQBJQm9BcwC1ABRImP0ibqcf RB1gyU0A5HX9vaU9Uk4nrTUT7Qj7UmjiSgAQ4A0+QQGKTmANsFI+UMVtr9z1dRXXojScyB+P3j8B MSNhhrQIWi0wJRD/Qt+QO6UwKGhpOj5TlOGunDUEaaMtwQN6C+Inmck2WNAbLUCgDwJ2ILtgWkqE hkWaCD3x3cBxo7KM90EtUAnyqbJYWuI4BJe15wmEtxYPAgpCzOWTx4mFsNwGb7FpxH6Bzo5mJdQp jps7ludgL6pwAY3ArMleYF+27nmkXU+gmNOjM6hRRBjSERRMGdFA2yAYp5oJ/yClXqi015d3Afe4 1grWgSaGgfsLDfyg1ONsMO4wZHCn9SMbRdNDScukC0gDYuGhD7Z8A713phQlIEqHgSwlNEA0dzTW FblM9gbfJH2jjS7yPSH8DF7HyJWGEqClK1x+eqaRqCpiR1YtnOjwnS/eyrKoQlpe5oZwZ8lzrq5e o6CbIW49W9xgZFcqKhfnIoTh7IAhRUqvhTXnOioSWH9TH7idrY6GAFAGZUIkqEd0sRoJcpjaOboE ngHLXwBjuOnY7gAPi3kLVVdZo99PXaIjxilIdUKC3hTSg4ugPH6tsnQYG6x7ORTxASIcAwpv1iu5 BMhRHBtsdSxaoyswNHT/AZLUK9iyiyGgDlGHaTvdFwORLvv7b/qFjBTjLO1Mj1JUDybsVF8BNynN c7TemKkMVCyxQnuT6zQ9wDYINjdqUtYx7QXmI6KkAyYBlwUDTGjPieLprnFY4trL0VukCV0H96Mh n0FQdCd6nLhCr6wG4kWti9thFWwUOmlVx7qCHhTApAowagd/gP7C+iKAB0wLraO7ABZ6/Zg5pdlo SzJA7YuH7H2UBdUBPvsCekMgcY9jycgi8rq2gPnC3rBY7bEKktAE6DfAcO9BfjHCRAvrTc9SQ7hO lBfLc/UP4ibhst/xIE6pZW0AaqHVEGKw+0qEwNJtGH1KbwKG3Jf0ILCBL3bIOlGGpA0EvyipF5AI Gggi2wBAnNxH5fAV1p9CBvXKdWoULIffts8E3qM3NV/GSq8sbTMHYhQoQXu55MZYZ25ScuFSaV6M FR2CsXuWMwvsTUJPqAFmp+hjg7QYaPH8DCRNlJkGKAXkbGw4lYMplFbrRbQGKPal1lL7Y/VXA7WT qs5PBPo2CvqwNZbG7rkTnhWsadTQlYrBa7jADqHHInFOGU4qWEnWT7hBwCRjekcWzwSimuP344r/ +I41QU4BSO9z2Dnx4tswebGRQQh4FU5jwVtjHywOn8G4RjKHVOsaBGBBy1WF0/JnSBJWYXz+UQkZ /gEkT96amVMjRh1Bd6/0Kk+iF1A+lYagODXea6SeTdDEmDWZGawMzQPjZAEJL6PcNWTowMh40GE3 S8QO0fecSzq8LzykNqJXAIuXHnZLvvaVI1Xs6L8meYZrstXCKqhQUoicXjhgCgc9y7pABrJ/vmQi 4nBJ6AakcUZRWtG87GruqxrxAdEEFlRIOWUG6DT0pJPtxI9cTNN+0PdlUqarTU0oaA1ipxZA5BC6 nPEe3YMrD7TZHjIXJGiTXyKEvCYxjsHb8nK8qWhTmCR/ajVqEIBZW3F3oCdcrEKRodCEhHbsT/A0 EC5UdIPdNpi5MgrN62HFvD/Le1IReFTy6N/UrrMiLAdppfvwy2ivjdCvIho8BORpgOqkntrWiEoY 2ZGgV46aUsaZYIzR9TckyG6jmJph2gGnIbOQDCeIMxqQOQ0FuacG+9YUkROGJ/SjqAMbieIEOvYN urVUOoCb8foyaqA6ooi2g0SexkSDzMEaZ6IBKMjFWmg7svXNuvAFB+knTUobPranQRg2LUviIfxR aUAQNXbVHNibK6+4qMiLGgXYIVnyvmQ+0NknA9brQZmnKViGc6NqT4n8dlCDMVF0lUvhJe2bcHAz XCx18uY58BZ0XzYwciOQUyHXF1nx6GS1IL2iOFLawjKSANdBWnywxg5wNjIIofyM/Lk2gh2Fd/Gs VENNvMWQv0RTQrmK3xdNA/YWicdj9yOJ1iFkQxYD7fDtAQ96Dwvgzezr9aRTRIQ4abpQXCoGHQOU EWGM4doZ/V9fk+JKCrKGajvKKiygJtRdcQPvSut+A6ktsbkm4qYUEE+wYUiwC8cBjLhjjA8+ZcSO ZPJqH1KkEyBpyJUCjI+gfPYZSDoXNqz30xYDYEGl570PYgv+jjvPWavwBm5zdCRERrAzPhE6/FB5 iPvmTd1S6ZHyGoAv6cSTUfsPCz/prjZEtyp3NDeaJtE2odyZ6hxUGrwIxlA99J7J1R0NTBCXLB/O AxEbKD9BLfwZIUO10ird5UxKDlhymRAM+gNxuyYn3+iUQgMNM7tO2jVLVp2jGo5Jc2fDv7I2Q/2w kBfxtEgp7A/XeCAgpQlJi8JVQ4nAoF4/hw9oUn5pbjQtCDfxvwndj+ScB5YKfHxeza9z+xhPIoR4 tQQFyyvS73EaLlb1AhotyYOBCO8kENXN3S6aHxg5Zw4ACfCgiIXBeOHOnZUn7FeaNP5CVVHXL232 WilIhNlS2tESADZ6dAaAes+Gc8PqiQT2AUkEOSjHhARoxAnaB/R6wqzS95iG902+j0Y3EEQ6Y5+A 2UV4AUmZcm9S6tcQm2VIs6Nkuo4LcUaa6Wj2v6Geb240paYyfpGPkT6k34lYRK60NP6i2SboFbX9 h2G1Ab1AetL7s2PVBwocb4dKqRQYJoJFYrl7oAWpZtUXWInum9xzILvYZgH4R8wCNcmwNaU2wUPo TGJnaPiuCbQfGByhRVBdGjnCeRpj8SZwXIPZa5MYYbA0ToPWBLN8fjQIe900LiLTKAwg8oTJTdpE NFGor6n48Zyq13bBLQ3iBqyHU4FYr1LJ0hAYl5DVDbnw0pa5CfA+HKpZKaB2gFz+wYcd1dMkQTVP /ua0RH/lf36/Ec7DAoDZGnucjSCsEztGwOnp9OkkDe3oWBwbXbvk9sbqSI0sHwA5lKta8kStLBCy IqEQm4uU0h2vEOEMPQA8qDxqG96meFD/tM+LGtBwDw0s8f+0oybhpFA6O+KNdMqAowWGC0vGyI3k kpmvZTUuDSe5Yk3jfwgmwwOgio4P0qITJghJ2HCx5CdtwSJ1lOah6tn5E81XWLh4rA9zpLEL7g1c wgJ0HMaGmzDaiLWAe59dvLiiZljqgC2twZtxaEWTpoivRzrCRXDvQFVfTd/BygXU7wtl8J6ggWdC JCCx69h2vscmSO2oxLvRNsA5mvxFMAM40Gmt68MorazqB2U7imQFKc/vwQvNORdKgwwRc1yo0N91 qnaxAtDBUP40wV2YLZkkwH9IdAys0AuG6zsUqdlEdnaJprN1oj50akA7IEgriUga4CFxuwD90HwR PYjA76gUUT54FB+RI0aS5oArxuPnFEaHMBDBw4+D7oXYEX1j5yaV+w0eHN+wFP6dAxowa7RiGYzW SSNB1ukFKhSmxQppIq/p5NYZZN0anVKJ2TZknEmI/iM5QUdkXlQ0F47RcWC6OgBEu2wZ7DUKIcOQ otVcimHhuSOegnoAbiFNtrwPLNJMQYma6Zp2B8Ahuqo5urj9jMhJF5acunwIUUf+dJQx5OFQD1Qo AxoDuE4YFtaJnOpIocgoIbQr5dL4diXlAW+sGjmBrdjJ0Nr00AXr/RnnObwGpEIYE4ZEtlG1/D7L nVaiCWIfWhvePEC2l+ao0Jp1vEB3Ep6p0RlVVQKmc3X5SoQ+XI3XwFpBWQf8Bb47vIqp1Ckh2D5G vMAHhV0h5NU0j1rnm0xjITApmlhcd81dI0VcV6EPceudoBxUOfjcus4KEXIokL6gB3t9WKlqPkKD p6UPUSsNnAAHdLCyo2hYz8egNwjYNbzOTsIvmB/rUHlrw0Rga3vRLECME5zAq2RYIdIPkFyaYhhI Qv4rjn4mNQQCGskPN2YNWunWpImYujZKlo4apMTAm7hXVaIiII//QGniKNAGcAO+jjyfC91ubHNE LGUinXBLLYmRZb8tIMcJ91MGMMmaa0pfIZSpX0Nobp39HOkMFhEpVfgkrSfunvmTCniU+A3rZHwQ iajMdevW+B1YezqexW+yb8060zcshCWWKQ1EDmbpD6UJJy07/gKwizIqsOyWHdJ5SkX3IzulZqdA JkGIKULi3LsK90zu7UGth46DFoA3EDL6qqoKuBQu0bNXOcs44uszKgEhQI5XAdiXjkzwMUkniUip obOfvdUatgKMD4q1iYh2vALXfxfYwMZ1gU6+qdXYNPmFZ1DZLm+NJaPUm6ZAhELzQMXoyBhTX0kG kesP7BbiPeISVr4QFNrE9eQG1YUqQRZLucA5MuuJujQ+mMItBAjPh6JDRmdEeiNtVqV8cI6mOX8q Z1ydf6G8QHJCUFJBWqAlqE+Z/JZDFLGzMYTNBv1x/7iLCv8tygmo3Doyx/VQ5ognDczRqRO35N8B GOhyJmJyBXwQ+H7oKEBpNVff6+CpaxjexdnA+cpIOrCApepwyGr+g/8pEGxZhdeMSsssZamJNCet YHJGhLJFHfLjX1A8o2JhHUfK34N+2hc+v8I2XA5bBkb6QfdkDQ/Gnst1tpnbdwRMH2E6sTcp9QKJ N/lFyE3DhJ4om3jQlngjlFkQ5ehxhtNVrRfE4D7jsIWhiijQ2QOGTD40T43EqL5YgTZYqeuieFAU BcEet4GL+DiQ7ZxPYNSqKY0Diq0hTjA2EI2UwaZKMJ646iIGGN8DK+vS4uHh9Gk6l9mg2Hkrymvp qFXnWXpMwYpOdpUlkJrcyk0+CgBqRdE8YOO1YrJZWqCpqormrQnMp1FbcqgcqNfpS0sxDeqZIFMh 0BtgSl1PXaeQ92ZkjQCChE/HqRpBI8zdJoUF5mOUQXOAx/iQ5raZmqLpCnTL1YriHAF9fFEMOvrK +GnJTD1dgwyJWaMmDBFsAco52MyHDA9n3MAxxhetdHQKo3NdmsEkRiXwLq5wa9ILviCrQVGkObX5 gHU5CfAHPYPSRlZmQAWWJ+/TG3poTU9ojDBv/koHphZwL+xgQqUh+tFW+0mh64BVGvQ7g8BjYrE0 4pIO1lk2gOBjhIL6JNjSPo6kpqNvF3tA3vilMtd3RN10CLfU8yePQQoQ/RlVArzmDDaNGGB1jbRU FWAzwL1QwNhw68gK7vbzKEiHWiNbXUXPiACNRSYSqMTMsZs2V0iaTWFapwoUnIkoH5AVRvgODOAS lBaf+ujQcC/3ZTCIRqnob2FIlMLOgaugmvoCBDEq0s4O808dCKL9Gki6ph7jaQjvWo4kH4H7EIUg IFISDYLTCSOe4jQERbtEi7gMJHGHSvTQGBikpVE1kp561AlyMKoQyQE8YkvHN3rrEfAfugLscWB/ fwiCqSc0ewRApp4iwPQUSQsoFtT8junBokPRVcodHXb0YFewh/Ji5Vlzj4v01VQJkY1MwsJSNmnD b66+xNzSwjbIFKatR0zh2xRnEXGHokcO1nfKIyN2YTD10dIoqepABKtzVtRRSddDJdgUNEelH6+U JdLIJ2b5hWZUyNRzB8i0RpohqULJXeqq6JE4bIMeaUCXnyuMBjOxmaznQlhOi6KzsKwBBpjoVMpF Bz/f6flyPYCFhR1Xh6sYeEyy+uObQxU9Y3PYFcWRNIlYekCmyYtoWsveiUlHxQOxuJheBOJoLGTZ 1NGaziYaRekSbFMjNusfMjQEps0RdPhDoQ5U7NYpHchVJhfQPGmLpTElSL2ODrzv6GCTMD+N2AE4 jTCaWgpZgyHKRO5jl62HwfiRcqIpsPOwD9ZPx6xKmHjqHo03RHKZ9tfYN3YysEpYOk4ARvSwC1wM /qn0D0GlBPTY62cCJV6T1M+B0fT4mp4lpeQR8To1RaMH0OSi3Elr07mibI0OqQnL0rH0f2GJ+Y4h +Mba32gM5X/yLRAlEa06Bqd52zeKgwX6zxkNQd7YLR1tgbQ4m6gJpqYIgD4FYvI8I2BBsf5ADg5P I9zXk0Z5iubboIRmxR3DiWcAfykbEZLELWJMWh6Klyu1kDVTpHZ+ymwKphHgDUzQA0bQXDJEedHT dTbtSopg7KRDOjoThSxKgsUC5ogYUuo6P2sEBoFr+SGeNASa83vORc+iI9X0xEeJ75sclXWlURDU esAl7bA0NR72HAjyj6xYEDmsmqPq3AG5iz8DTnXo/vQUEsQO9GBDGzfwgoi1fQL9rOcOL+awICLQ JRQmlJb0uGL57i3doyGpHrOY7chVd5UZF2oYeh1LISJizYO6eVnPRJuOR3WS+UTy8w2QBft/sTjz eyCPdsDYAU2y4bTda6d9E9IY8MyYJaTI1fniW7st3a+JezGEgkkfm/r1KPFOx2juXfRUWdbcHOVe 5NQ+yiZvNpe0DqYEp6NH1DCbN5X7xCRxdVRyVQfJX3uL3/5mxzY8nVTSraEAvUj61rf0HjipkQg0 nBOwLe+46GJ8IbJTD+1W6kcE2fT8AjoIfluawe2ALgQVvjLXvUVASCrTYzXUlLGrLa2AzmNHzjUw 0r5kATFzUCzEgoSPGzHKG7Dp4MfQw73guyQeaV8dTaDjCkQMxgQJHQ3vjL/cdeqQYMPtDjLVtvRM hP08xqRxJPiuB5pM//eTf/8OviAz8Bwialo8o6zywTKWgN/Fhgwdrcj68tKEZiRmIrZ/89Gkx2T4 zJRFhc0gFI0YQLlbmo7zNLJKwfGTKtKCTdWJEhcQwTfBEJIF//Xvh4F//x7gnq9tIINCkEDaiWjU qK5+lmUgBOC57nr4DVJQH8SpBzIKnfvFBJyZerRqD4no9T3dqydA6tZjB2WMp9MBkYAe2s46nICw xIaIVaBwnQ/jsPWiuJB0UjdhNR156jwe2KQv9PSRiSb1WLjO3dmEnhctOuUm7ihzSm5WSUscnt/A 2vCyeggHKbMMqUPfgbPNAdOh5UMPE5KbKnMK+9g5mvRiubjMtzc0egnQKGb8e3gS9Ky1/mQal9Tj vz349l99D//dGwBvQJyM/F9TBkc8FlZqyAAAAHB6VFh0UmF3IHByb2ZpbGUgdHlwZSBpcHRjAAB4 2j2LOQ7AMAgEe16RJwCLr+fEdpMuRf6vrC0lg4R2OOS6nyHHJmVBDY8WU4P148OGWjoZYd1TFLqj 0CscHKKyNwC6NqqyvlTLVgxa51FGYGE+P5MX64gbHEA/gbYAABNkaVRYdFhNTDpjb20uYWRvYmUu eG1wAAAAAAA8P3hwYWNrZXQgYmVnaW49Iu+7vyIgaWQ9Ilc1TTBNcENlaGlIenJlU3pOVGN6a2M5 ZCI/Pgo8eDp4bXBtZXRhIHhtbG5zOng9ImFkb2JlOm5zOm1ldGEvIiB4OnhtcHRrPSJYTVAgQ29y ZSA0LjQuMC1FeGl2MiI+CiA8cmRmOlJERiB4bWxuczpyZGY9Imh0dHA6Ly93d3cudzMub3JnLzE5 OTkvMDIvMjItcmRmLXN5bnRheC1ucyMiPgogIDxyZGY6RGVzY3JpcHRpb24gcmRmOmFib3V0PSIi CiAgICB4bWxuczppcHRjRXh0PSJodHRwOi8vaXB0Yy5vcmcvc3RkL0lwdGM0eG1wRXh0LzIwMDgt MDItMjkvIgogICAgeG1sbnM6eG1wTU09Imh0dHA6Ly9ucy5hZG9iZS5jb20veGFwLzEuMC9tbS8i CiAgICB4bWxuczpzdEV2dD0iaHR0cDovL25zLmFkb2JlLmNvbS94YXAvMS4wL3NUeXBlL1Jlc291 cmNlRXZlbnQjIgogICAgeG1sbnM6cGx1cz0iaHR0cDovL25zLnVzZXBsdXMub3JnL2xkZi94bXAv MS4wLyIKICAgIHhtbG5zOkdJTVA9Imh0dHA6Ly93d3cuZ2ltcC5vcmcveG1wLyIKICAgIHhtbG5z OmRjPSJodHRwOi8vcHVybC5vcmcvZGMvZWxlbWVudHMvMS4xLyIKICAgIHhtbG5zOnBob3Rvc2hv cD0iaHR0cDovL25zLmFkb2JlLmNvbS9waG90b3Nob3AvMS4wLyIKICAgIHhtbG5zOnhtcD0iaHR0 cDovL25zLmFkb2JlLmNvbS94YXAvMS4wLyIKICAgeG1wTU06RG9jdW1lbnRJRD0ieG1wLmRpZDph YTg2NmM1My1iYjM2LWIxNDMtYjdiMy03ZGZjNWEwYjU2NzciCiAgIHhtcE1NOkluc3RhbmNlSUQ9 InhtcC5paWQ6YmFlM2JiZDAtYzNkNi00N2VhLWJlZjctYjZlOGQ4MmM4YWY4IgogICB4bXBNTTpP cmlnaW5hbERvY3VtZW50SUQ9InhtcC5kaWQ6YWE4NjZjNTMtYmIzNi1iMTQzLWI3YjMtN2RmYzVh MGI1Njc3IgogICBHSU1QOkFQST0iMi4wIgogICBHSU1QOlBsYXRmb3JtPSJMaW51eCIKICAgR0lN UDpUaW1lU3RhbXA9IjE1MzgzMDYwMTI0Nzc4NDgiCiAgIEdJTVA6VmVyc2lvbj0iMi4xMC42Igog ICBkYzpGb3JtYXQ9ImltYWdlL3BuZyIKICAgcGhvdG9zaG9wOkNvbG9yTW9kZT0iMyIKICAgcGhv dG9zaG9wOkRvY3VtZW50QW5jZXN0b3JzPSIzM0NCNzM4ODI4N0MwNEM3MjdFNTU0NTNDNzk1NUQz OSwgNzVGNUY3QUUyRDIxQzhGRkVCQUU3RkZBMjA5MzQyOTUsIEM5MzUwNEY0QjBCNDM3NzRCQTlB NjM4OEQ1NDMxQkM4IgogICB4bXA6Q3JlYXRlRGF0ZT0iMjAxOC0wOS0yMFQyMDozMToxMSswNToz MCIKICAgeG1wOkNyZWF0b3JUb29sPSJHSU1QIDIuMTAiCiAgIHhtcDpNZXRhZGF0YURhdGU9IjIw MTgtMDktMjBUMjI6MjQ6MjcrMDU6MzAiCiAgIHhtcDpNb2RpZnlEYXRlPSIyMDE4LTA5LTIwVDIy OjI0OjI3KzA1OjMwIj4KICAgPGlwdGNFeHQ6TG9jYXRpb25DcmVhdGVkPgogICAgPHJkZjpCYWcv PgogICA8L2lwdGNFeHQ6TG9jYXRpb25DcmVhdGVkPgogICA8aXB0Y0V4dDpMb2NhdGlvblNob3du PgogICAgPHJkZjpCYWcvPgogICA8L2lwdGNFeHQ6TG9jYXRpb25TaG93bj4KICAgPGlwdGNFeHQ6 QXJ0d29ya09yT2JqZWN0PgogICAgPHJkZjpCYWcvPgogICA8L2lwdGNFeHQ6QXJ0d29ya09yT2Jq ZWN0PgogICA8aXB0Y0V4dDpSZWdpc3RyeUlkPgogICAgPHJkZjpCYWcvPgogICA8L2lwdGNFeHQ6 UmVnaXN0cnlJZD4KICAgPHhtcE1NOkhpc3Rvcnk+CiAgICA8cmRmOlNlcT4KICAgICA8cmRmOmxp CiAgICAgIHN0RXZ0OmFjdGlvbj0iY3JlYXRlZCIKICAgICAgc3RFdnQ6aW5zdGFuY2VJRD0ieG1w LmlpZDphYTg2NmM1My1iYjM2LWIxNDMtYjdiMy03ZGZjNWEwYjU2NzciCiAgICAgIHN0RXZ0OnNv ZnR3YXJlQWdlbnQ9IkFkb2JlIFBob3Rvc2hvcCBDQyAyMDE1IChXaW5kb3dzKSIKICAgICAgc3RF dnQ6d2hlbj0iMjAxOC0wOS0yMFQyMDozMToxMSswNTozMCIvPgogICAgIDxyZGY6bGkKICAgICAg c3RFdnQ6YWN0aW9uPSJzYXZlZCIKICAgICAgc3RFdnQ6Y2hhbmdlZD0iLyIKICAgICAgc3RFdnQ6 aW5zdGFuY2VJRD0ieG1wLmlpZDplZGU4N2Y4Zi1iYWQ0LTI5NDktYmYxZC04ZGY1MTIyZjAzMGQi CiAgICAgIHN0RXZ0OnNvZnR3YXJlQWdlbnQ9IkFkb2JlIFBob3Rvc2hvcCBDQyAyMDE1IChXaW5k b3dzKSIKICAgICAgc3RFdnQ6d2hlbj0iMjAxOC0wOS0yMFQyMTowMDo1OCswNTozMCIvPgogICAg IDxyZGY6bGkKICAgICAgc3RFdnQ6YWN0aW9uPSJzYXZlZCIKICAgICAgc3RFdnQ6Y2hhbmdlZD0i LyIKICAgICAgc3RFdnQ6aW5zdGFuY2VJRD0ieG1wLmlpZDo2ZGMwZGU3My1kYjZkLWE3NGMtYThj NC05MzQ5ZmIwMWI4NmYiCiAgICAgIHN0RXZ0OnNvZnR3YXJlQWdlbnQ9IkFkb2JlIFBob3Rvc2hv cCBDQyAyMDE1IChXaW5kb3dzKSIKICAgICAgc3RFdnQ6d2hlbj0iMjAxOC0wOS0yMFQyMjoyNDoy NyswNTozMCIvPgogICAgIDxyZGY6bGkKICAgICAgc3RFdnQ6YWN0aW9uPSJzYXZlZCIKICAgICAg c3RFdnQ6Y2hhbmdlZD0iLyIKICAgICAgc3RFdnQ6aW5zdGFuY2VJRD0ieG1wLmlpZDo5NDZmYWQ5 My0zZDQxLTRhMzctOWNhNy1kMDBlYTliNWJlMzMiCiAgICAgIHN0RXZ0OnNvZnR3YXJlQWdlbnQ9 IkdpbXAgMi4xMCAoTGludXgpIgogICAgICBzdEV2dDp3aGVuPSIrMDU6MzAiLz4KICAgIDwvcmRm OlNlcT4KICAgPC94bXBNTTpIaXN0b3J5PgogICA8cGx1czpJbWFnZVN1cHBsaWVyPgogICAgPHJk ZjpTZXEvPgogICA8L3BsdXM6SW1hZ2VTdXBwbGllcj4KICAgPHBsdXM6SW1hZ2VDcmVhdG9yPgog ICAgPHJkZjpTZXEvPgogICA8L3BsdXM6SW1hZ2VDcmVhdG9yPgogICA8cGx1czpDb3B5cmlnaHRP d25lcj4KICAgIDxyZGY6U2VxLz4KICAgPC9wbHVzOkNvcHlyaWdodE93bmVyPgogICA8cGx1czpM aWNlbnNvcj4KICAgIDxyZGY6U2VxLz4KICAgPC9wbHVzOkxpY2Vuc29yPgogIDwvcmRmOkRlc2Ny aXB0aW9uPgogPC9yZGY6UkRGPgo8L3g6eG1wbWV0YT4KICAgICAgICAgICAgICAgICAgICAgICAg ICAgICAgICAgICAgICAgICAgICAgICAgICAgICAgICAgICAgICAgICAgICAgICAgICAgICAgICAg ICAgICAgICAgICAgICAgICAgIAogICAgICAgICAgICAgICAgICAgICAgICAgICAgICAgICAgICAg ICAgICAgICAgICAgICAgICAgICAgICAgICAgICAgICAgICAgICAgICAgICAgICAgICAgICAgICAg ICAgICAgCiAgICAgICAgICAgICAgICAgICAgICAgICAgICAgICAgICAgICAgICAgICAgICAgICAg ICAgICAgICAgICAgICAgICAgICAgICAgICAgICAgICAgICAgICAgICAgICAgICAgICAKICAgICAg ICAgICAgICAgICAgICAgICAgICAgICAgICAgICAgICAgICAgICAgICAgICAgICAgICAgICAgICAg ICAgICAgICAgICAgICAgICAgICAgICAgICAgICAgICAgICAgIAogICAgICAgICAgICAgICAgICAg ICAgICAgICAgICAgICAgICAgICAgICAgICAgICAgICAgICAgICAgICAgICAgICAgICAgICAgICAg ICAgICAgICAgICAgICAgICAgICAgICAgCiAgICAgICAgICAgICAgICAgICAgICAgICAgICAgICAg ICAgICAgICAgICAgICAgICAgICAgICAgICAgICAgICAgICAgICAgICAgICAgICAgICAgICAgICAg ICAgICAgICAgICAKICAgICAgICAgICAgICAgICAgICAgICAgICAgICAgICAgICAgICAgICAgICAg ICAgICAgICAgICAgICAgICAgICAgICAgICAgICAgICAgICAgICAgICAgICAgICAgICAgICAgIAog ICAgICAgICAgICAgICAgICAgICAgICAgICAgICAgICAgICAgICAgICAgICAgICAgICAgICAgICAg ICAgICAgICAgICAgICAgICAgICAgICAgICAgICAgICAgICAgICAgICAgCiAgICAgICAgICAgICAg ICAgICAgICAgICAgICAgICAgICAgICAgICAgICAgICAgICAgICAgICAgICAgICAgICAgICAgICAg ICAgICAgICAgICAgICAgICAgICAgICAgICAgICAKICAgICAgICAgICAgICAgICAgICAgICAgICAg ICAgICAgICAgICAgICAgICAgICAgICAgICAgICAgICAgICAgICAgICAgICAgICAgICAgICAgICAg ICAgICAgICAgICAgICAgIAogICAgICAgICAgICAgICAgICAgICAgICAgICAgICAgICAgICAgICAg ICAgICAgICAgICAgICAgICAgICAgICAgICAgICAgICAgICAgICAgICAgICAgICAgICAgICAgICAg ICAgCiAgICAgICAgICAgICAgICAgICAgICAgICAgICAgICAgICAgICAgICAgICAgICAgICAgICAg ICAgICAgICAgICAgICAgICAgICAgICAgICAgICAgICAgICAgICAgICAgICAgICAKICAgICAgICAg ICAgICAgICAgICAgICAgICAgICAgICAgICAgICAgICAgICAgICAgICAgICAgICAgICAgICAgICAg ICAgICAgICAgICAgICAgICAgICAgICAgICAgICAgICAgIAogICAgICAgICAgICAgICAgICAgICAg ICAgICAgICAgICAgICAgICAgICAgICAgICAgICAgICAgICAgICAgICAgICAgICAgICAgICAgICAg ICAgICAgICAgICAgICAgICAgICAgCiAgICAgICAgICAgICAgICAgICAgICAgICAgICAgICAgICAg ICAgICAgICAgICAgICAgICAgICAgICAgICAgICAgICAgICAgICAgICAgICAgICAgICAgICAgICAg ICAgICAgICAKICAgICAgICAgICAgICAgICAgICAgICAgICAgICAgICAgICAgICAgICAgICAgICAg ICAgICAgICAgICAgICAgICAgICAgICAgICAgICAgICAgICAgICAgICAgICAgICAgICAgIAogICAg ICAgICAgICAgICAgICAgICAgICAgICAgICAgICAgICAgICAgICAgICAgICAgICAgICAgICAgICAg ICAgICAgICAgICAgICAgICAgICAgICAgICAgICAgICAgICAgICAgCiAgICAgICAgICAgICAgICAg ICAgICAgICAgICAgICAgICAgICAgICAgICAgICAgICAgICAgICAgICAgICAgICAgICAgICAgICAg ICAgICAgICAgICAgICAgICAgICAgICAgICAKICAgICAgICAgICAgICAgICAgICAgICAgICAgICAg ICAgICAgICAgICAgICAgICAgICAgICAgICAgICAgICAgICAgICAgICAgICAgICAgICAgICAgICAg ICAgICAgICAgICAgIAogICAgICAgICAgICAgICAgICAgICAgICAgICAgICAgICAgICAgICAgICAg ICAgICAgICAgICAgICAgICAgICAgICAgICAgICAgICAgICAgICAgICAgICAgICAgICAgICAgICAg CiAgICAgICAgICAgICAgICAgICAgICAgICAgIAo8P3hwYWNrZXQgZW5kPSJ3Ij8+/375DAAAAAZi S0dEAP8A/wD/oL2nkwAAAAlwSFlzAAALEwAACxMBAJqcGAAAAAd0SU1FB+IJHgsNIKgb45AAACAA SURBVHja7J13eFzVtfZ/a58zTSNpZBXL3cYF27hL4IJtjOm9gyEBQiAJ4Sbc9JCbHpLclC8huSHl JuHCDSlAQiihkzihYwMy2AaDbdyL3NSlqeec/f1xRqOZ0Yw0KjZOrtbzzDPt1H3Wfve71l57LaFA 0eFTl2DEP4jtfYxoyfNS/tBBhmRIhmRIjqBIwYAVW/xrjMSH3C8qimO8imM+SiLwdx0Lva6q7rP/ BdpDYQauEzt+PsgcoBJ0ADABtHvziEgMLa0Ir2sx/4wdvQNwhtRpSIbkKAAs3XBeESUN2xG7Ktff OOYeHONxbO/fCZf+TYY/2PBP1Qge/zQc+YloZ7nWcVNrnX9bcZuscxsRAWXYYD4r6JsdO7ZhSK2G ZEjeS8BqP/l8vOG/FEbFVBTHfBlHPUmi6GkdKVunRt57dLIPMYKiPPcC5+IkBDRaO3mByu/3U1RU hFKKeDxOJBIhkUi44CUKpUyNyF8cK3bRkGoNyZC8V4AVWfx7VOJ9fT66RqPNnTjGU1ievxIP/U2q Hmw+Oow/3zxwnsGxSjuNPbc5urMr0zQJBoOEQiFKS0vxer1orYlGo7S1tREOh4lEIsRiMRwHlHgb HbHn4yS2DKnYkAzJEQQs3XB2McGm3eCEUv1ZMkApH1iBZAGAVlEczyoc9VfixY8SHvaWjP3dkfd9 qcBipfUzWsdMTX7zz+PxUFJSQigUoqSkhKKiInw+Hx6PB4/Hg1IK27axLIvW1lb27t3Lvn37sC1A nLCGuWhn85CaDcmQHCnAaj15Bd7wvSn2oXPsqbPZSa7P2exFNI65C0etxPE9RqT07zLigabDf8fm GEG2KJ3w2nkYVQrXlCIQCFBSUkJJSQmlpaUEAoGUaVhUVEQwGMTj8dDW1sauXbvYunUr9fX12I6N IGFghtZ6+5CqDcmQHAnA6lj8ICpxUW6TSdLpVCag5QWw7P06PxpRHGM1jvEklv8R2odvlPG/tQad XCnvOu3EZ+k+7tdpFhYXF1NWVkZ5eTkVFRUMHz6cYDBIR0cHDQ0NKdA6dOhQ8lZVA5pqcOwhdRuS ITmMgKUPnT2Moqbd4BTRzR7UdPtN6+THtO/5XUP5L6fT96XVSizvw4RLX5AxDzYO+GbFuwzRz+BY aHS/jqGUori4mKqqKkaMGMGoUaPw+XzYtk0ikaCpqYldu3axbds2EokEggHiPKq1Pn9I3Y6s6MYT BEMVgTEe1DhEKlETSvBMs1DD21BjW9D73yH+171S9LvYUIv9swNWy7Ib8ETvyGnRJa06EPd3nfze 6bvqBl5p++js0+YyH9N+10YUbbyCbT5GPLiSeNFaGfunPrMvJcYzGpZpPTCyIyIUFxdTXV3NsGHD 8Hg8+Hw+fD4fjuPQ3NzMu+++S2NjI4JCKzRaFqDtV4+azqw3jSa2agnx56dibz8WHR0JloHWHiAM ei+wDZHX0HqVVKw+dFSD09paP15G4GEmQZmJT83AkFnAMUAxoLorsQEoGzEaQa9F24+AehzsLRJ6 SQ/Bwz8bYLUtfgplndH9j17cU/mPmGY6Shou6R4uJQdKOuYuHOOv2J7HiZc8K6MeKijuy0S12WIU a50YBNNSEQwG8fv9+Hy+lLkYCAQAqK+vZ+vWrXTFdMk20BPf007dfOoUqLwGKb4Q5+AMnP1Gd3XI +SATwBrgf4F7pWL1ez7Tq9fVlmFwOorFGNRgcBx+KSOgDAyVQ3ckjz51Ewt4Dvgv4AkJrU4MwcQ/ AWDpg2eNJNC8DbQvzxCdnAXsAVsyQKov2tgbIKabocplX47xCIng3132dX8uCjUa2D2ojSeCUirl nC8tLaW4uJji4mJisRjvvvsukUgkeSuCRi0B+8Uj2rEbFgjIiYj6Eto5DbQn6ya6TPfCpBX4JfA9 qVh9RAOE9fpawWQB8EkUZ2ESwgC8AgEFSuUfIHsH5ez/NPA6yKdAPy+h1UOM66gGrF3nnYS34wn8 8SKUVRjI9EU3etu/p9AJyTOAur6v3TjG4+wv+l+Z/uSqtC1uAn5+2BpSBNM0CQQCVFZWUlRURH19 PQ0NDSnAQqROa+f4I9bBD50wD1HfAM5FRGUMNn2/wez99gM3I3K/lK867J1Zb6qdhfAthHMxMVBJ i85rgFcVMPr1WyzgN8CnJbS6dQgyjmaT8I35UxDfj/GpswmKELTBjBcGPL2xpoGwL+nhHcA2YYPd hp04R5bVvZAElPu11pce9gYVwefzMWLECNrb27tmCwERpTUSQttth7Vzv1M7hZD6Ol61ItmtMwEn F6vK/i0f88r8XQO/QNSnpPzl+GG5l221Bg6fBr6OQZHrdkq+fD4wdAGglCt4UHoYaXPKGuAKCa0e CgY+WgHLpeHzBKUuxOaH2J6JGH4oAko0+GP5H3QuIMmHUQMdBLOP2eKH7e2gaELrM+WkNa8qkfWO 1jNzAYzWekAA5ZKWzGOUlpYiIrS0tKSaWgQ06pto+6uHpXO/UTuOAP9Bqboen/JmNEq+e0xNkEim qZ/rPX8rPIywQspXDepMm95cG8DDL4GrMZAUUBmAtxykvZ/K05ty5gWxeuB8Ca2uG4KOoxSw0ka6 EhJ8EItLibGQmPKiAlCsoFQgGAOxCzcDc0wG9t2Jn0d2eqE57Cq2cBCYYSxZs87RekQ22ASDQUzT pK2tDdvu2+yhYRhMnTqVkSNHsnPnTt59990UcCmlMAyDRCLRBVhoNLIR9LRB7dh1tWX4+RwePkGp CuI18oBQWmNnA1U+v2Q22GUzta79HgDjSil/cVCc1HpHrRfN7xEuy2BVCvBWgIqAHix/eC4Ay6uA +4DlElr9zhB8HMWAleVPGI7DOcQ4jzjLiVKOHYBSA8oUlCbASPRfd/L5vwr5zfbAOwnQVqeCbyfG FOOUN5ocbRdnA9awYcOYOHEioVCITZs2sWvXroIYld/vx7IsRISamhrmzp3Lzp07eeKJJ3pmbCK2 iPJrxx6UoFi9rvZCTH6Jj2qCyvXp5N24QIDq6f9cjCsFfsYPpPylzw0CWAnCbQifzAAqAcwQeIrA OdxRFrmcqql7Xg+yVEKrWoYg5J8AsLI6jA9YRoKLiHMuUcaS8AlBD5QLlGnwxQZGmfIx+FwA1+KH 3e3udwEUt8mJdZ8xxOPYOpHau6ioiClTppBIJNi6dStz585l3LhxPP/889TX1+cEqpKSEk455RQm TpxIcXExjuPQ0dHBtm3beO6557j88st54403WL16dc+NrtRi7TgvDajdX6/xYsr38fDv+BB8CvzG kdegTNamkeAVMmzl/QM65M7aC1H8GUk611XqWYJ/KtjbBsGX0Cdnay75FfDRodnDfzLAynjUa2tN hNlEOJcEFxFhDlHDIOCHSgPKNRTFQDmDMHmTR+d2eqEt3KngGiULZNFrryqltOO4qWPGjRvH5Zdf zujRozEMg6amJp5++mkSiQQej4dVq1bRuW2nlJWVcd111zFr1izKysrwer0AxONxWlpaeOmll3js sceYM2cOK1euTDMFc4gyf4pj3TyAQcKLye8xuQwP4BEo8gFHcPVPPnYmvgYCy+aK/9Z+hZDovbUl OKxFOCYFVEby3TMalA1OQw/qPJj40eNKfwvkFAmten4IRo6cmIOKfnPqLNzZlDXAN/WrtZOI2eeS 6DiHfZzENglg+KHKC1VJ01ElMqFT90OnUuagF9pjXccTNmE7deknUEpx8cUXs3z5coYPH56KTp83 bx7f/OY32bRpU3d8UYprr72Wiy++mDFjxhAIBDAMA8dxsCyL9vZ2Ro4cye7du1m1ahUej6dHwBLt TOpvt9Lra008SbAyk53Zd5jAqieTMd/vTrSCxKGfah25WCTQ99t0uAGVBlbpL2WAcxD6lDbkcIzn 0tl3vqZbFp8hoReHss3+MwJWt8d6Qt0W4CfAT/Tq2jKC+kzikQtp5Cx2MQzHi67wwQiQCsAby613 hYJZq4C20/XsPlmyxknfd/r06VxxxRXMnDmTQCCAUgoRYcaMGVRWVnLyySd3Y1ezZ8/mxhtvZOrU qRiGkaNfa8aOHUtHR0fv7Mq9oZJ+N6qXb6GSYGUCpkr6dAYaKaFA+0GKk+0XxY0R7etDF7DeuYDE yjOBJ/uEj7trPSg+mnp+GYBlAOE8bErygIx2Ed0eBk1R6LAg3ggeD3g0hEqg2Ae09QHwMsByOTgn Ai8MQcm/AGBlPOYFdc3AfcB9+uWaIEE5gVj8QumIn6/XOhNjHYZYFT78c8Aos7JH3d7Zvgi06nQl dxD5U/Zmp59+OieccAK2bROPxxERvF4vHo+HhQsX8tGPfpTbb789w3d19dVXM3XqVJRSOI7D5s2b effddxER5s2bR3V1NUVFRZx55plcffXV3HXXXb01R3G/CM+7tScBn00xKwV4ysBp799Dsfywtxnq bdgXhnbHbUevDypGw8hqGKUg1Aa6gHOkHPJhIb7pG1rrp0WkcPYh1ADHpp5hBp4Gc9xnTw5NwJy5 kQ12TK/eMJO2dqW1jYiDqA4wHPA0QMUwmDwaJoXAu9O19Ao3DxXIh4YA68iJek8cZ4vWdMjJdc/I mXWfooKpMkrN843TXws40VeVV3ctpnbSdNDJAqxs8Ep4oSOarsvrZNFrb3Z9FQ1w3HHHpaLS33jj DR5++GGam5txHAelFIsXL84AK4CamhpUctnH2rVrmT9/PhdccAHXXXcdV199NXv37kVrTTAY5JJL LkntN5i+Q72lxoNwO0aWI9ooyenM0xqe/kcLV96wmeNPWc+C097kF3fuT5rOZbDOC3fvQz/aga6L wh6BVgUtQGMUtm2BV9bCo3XwXDu0VfeuLun3nXhhPs66pX20wC4huSgg4wUgFj3X+ZAssJr4O4qu OSGxem2N6PjxUuT9nfL54ogXx/ZC3ANRD9S3wOo34eE1sKUKGFbAI8tA1It0+7mhISj5F2NYedVs aZ0NrAXW6h2nP4u/9ZkegSnff61JhJMUG7snczdtA6bf7yccDrN27VrOOOMMotEoV1xxBXfddRdF RUWUlJQgIkybNo1gMMj27dsJBoOpANM77riD1tbWVFDoqlWr+OUvf8k3vvENRITJkyf3Hoyaionq U0tdhjAbI41dKUCZ4GTST9uGm7+wnYefECoqRhEIBGhuauZzX9vFwf2lfHV6AL2vCfCAMtG2diPE HHekEK3BccDRYDuwcz8c2AcnjIFxUFCBIL0X4muuA54tCJC31QqwrFsAeurlcUNVChkHxPcIZvkN Iss6o+9fB67RP635qZjqThLqOCehwHJQolz/nxODVWvg4EQ4IQRGS0EICzoE/tOAPw/Byb8ow8oP n9EVKXaV/SLP7xo380Nrhh5ZKHkwq0tEAaLRKKZpcvvttxOLuQ76J554gqf/+le0dojGYygUWmtK S0uZNHEyCSuO1hrHdti+fTuLFy+moqICy7KwLIvf/e53hMOuf6W4uLiQyHmrH0/q5tRsWefLKAPt ZJlCwl1/OMi6dyaxYsWVnH766cydO49jJh5DMFjM136wlhlffPkvUmQuEr95tfg9d6oi7yHxeRCP B2140NpE2x6wTPcVNyBqwCu7YbtdOEGMv3i21nsLGxQ9VAKzu/mvIInQBVuWLWjrY+K7vdtSIfn4 mtX41TLxmy+Lz0Q8Jg6mG7tnJ+9z21Z4JQK6tFDuC1J0zhCU/B8DLL35Mh84l+YFJacHAEt4IRpJ 70evyqLXsnKpu+VwDhw4QCKR4IEHHmDEiBE8/vjjbN68mRMXLURrh107tmEq2LN5M+tffo4Na9aw bctOtJNAi8Vjjz3G888/z/bt2/nCF76A1podO3bQ3OxmXInFYr2ahBrpU1St3lY7CWFBt5kz5U8G UHb1bsfR/PgX9YwZPQbTNNm8+V2efOIJVv5tJQcOHAQNG/ZFa+STr6+ST7/+e/n06zdQrCZKwLhF +41W5TXANBDTAG2CY7qdOWG4rzUHoNDkMvbbwwnfNqqgbQ2OQwh0Y9MakKIC2FVK7pfQC3mjf+XG ukN4uFi8xrtiKMQw0NoAO/lKGLBrJ2yJFAjMAgSWat1gDMHJ/wGTEBgDfGzehU+dedqy4uGOA5Mm +Djv9GGMG+3twd+Z9t6W9sXd7t4cIBEDzerVq/n0pz9NVVUV9957LyeddFJqm+f/eg/Orv/mvu8U M3WcjSiHtg4PG7Z9hfvufItLrvkSptG1pOfb3/42lZWV/OIXv6CsrAyAhoaGXhmWiBT3ySJULAdU Kngy1RYJ0JlEon5/gnc2R5g1V9i7dy+PPvpIruuRrE7cBnxf317zEEruF5FZ2nZLnokjSGfuskSS 7KxrhqXl7lKsvONg0Ea8z6MPFIo0szOYVQYw+4CC11Y/2ivE3Lhmv/557Y14jKcFMbSdxtRtAcuG t/bA6NEQKGBs0e3jIVoBHBiClH9thnUKsLmysvILvpLj5q16cxL3P27y8S/uYN5p69m+M5bbHEz/ joI2J13BY2jp5k8QrTsAnnrqKcLhMHfffXcGWL31yl8Y3fhvXH3qPi48pY2pk6OMHRHHCVssnHSQ y+f+lMZt93br/J/85Cf5+c9+TlFREVprNm/eXIBJKKP76IzOZFcpyOmOBTt3x7BtjVJCc3NTvmvZ m/M0N6/ZhFdOwydvi6FQZjLHlCjQBjgKLAUNcTikMvHPMSHsgYP+rewp+gabEpNl2GPLpfjuvQVa VnPy+i09MynQ6eeAbEwd5t1rBUDvWCF6y3XJz1dLktH9A5OnMAREoTFAK/ceHeXi485wYc/HafRC dPIQnPxrA9Ys0zQfXnbyMv/5F15AbW0NS5csZcWVVzJ37lwamy2eeqala+TTktuvFfdBLJrOG16U xa/t6dYfxKUD8XicF154gVNOOcXdPR5j3dP/wfDGD7Kv3qakNNkkqhxfcRWTp9pEwhaOHaU6/G/E N95Ac8POjMrPp552KiJCOBzm97//fQEApPoUh3WoyZqd80k5iW4duaHRBTHbsti1O2+weSDvpd1U dwBTVuAlqt0cXujOjmwnASsubjaMDoHtwBrdwrPR3/BC+GTeaJsis/72dVn4zPY+6sO0vMuvKDgJ hAM65S2XyXe79ZzG36dl0v8mP/9OJ1mlxpQ7MQVRkpwIUUmWpVymtafDBepewbYDdP2YITh5D0xC vf2ME0mUvi1T7j+cJbcMEfn1iBHVxa2tbTz5+JM0NTUyaeJEFi9ewgknzGft2rWs2xDOM7CmzYq1 O26e+C728Yc8yBzpNGB+dvtPmTVrGk31Wwm1/pZjix/AVxSnssqdUXfERMxqxOmgPLSP8pquc3rC v8G76344tJg277lEPTVs3rQRT8kxrHp5LU899TQiJronn4tjm+IJlupERyGRmebefYnplRVmjo5s JcecLod0J6F6efVq9u7Z26+BSm6qW+/8tPYn4uHzOu7eunbE9c1pE7RPs1N2sCv+PIqVGPxZPlDX 3l9l0HtrBUnGE2TPEuakXD0NwCpY8HktnhMhqhF/cvRJskntgld73GVavkJw0grq/ZeKVP95aG3h kQIsveWMAGbbo5jtXr3zpL+jzT+TKH5MJv9lsJfG3+j1ehc0NDSwe3cXGXprwwb27dvHsmUnM2rU aF55vbGrYIUkmVa6r0ob0JbhR4mg5KE83TAFDquee4H/94nl/Nt5Bxg73cAbtNyp/FQvCYI2Ebs9 WWgj2T4KNEUoSiDyJsGOVRTpMCeUCc2NPr51b4KqgIeGcLzHaUDtxBHhQ8BtBXh0vxhLOCXdPU+d W5jd/FgAO3fs7Om4q3vtgsKPDUM+LooiNxGD2oVprsKUv2nFM1LCZrmybnA6p4OJQSifrYhU9sVi GAUUVLzWggaPYq8omagdjXaSsXcqyegd3Hgtn03Pkcs2OG/GERlClCPKsDzhs8EZhhZQ8fMhfj4q EtE7lj6DNu/XsbK/qKkPDhi8ROTGExedyOtvvEEkEs0yaRp5/PHHOhdVJIOndXddccSdHUy0pbOr lbLwtYbcam8mlGgCpsm1yz185LyDTDlO4S1KIFkHFylBY6F0WxpQAroUMarRKoBoB3BQTjtoTXmF xX0/CHLah+McfNtlPabpNq9t2918SdpJfKQAwPog8PVEQmf03xRwOQkwijIc0kZhc1U/6lUxPlZX r2+v/U9MaRZT/oGfd+SmusOzZk7wA6W5CLQLQ+MoPFmanECBsV8eE40l+0FPdMFGMn2kjkA8Qbeg 1Fznt7fsQQ+VnjyygCX25V2dM9VDAqjE2ej42RKIxvSOpc/geB7ACj4oUx452I9zTp4y5dhZoVAp ra25LaJoMj5Ka29aVekc5kGHk6lHIvf0cN4mtMGssQZXnR5hzDE2/qLk8dLxQEwEP9rZB0TRWkA0 WooRNRxRJS4bsxPgtIJWtEdLOXTAYPyEJuZO8fHKhjgOpKrotLS0EIlEMkFL62OBebhBjbnkFOCn gLS02123nl4QRnSSYXXtVD6s14nfd4E3C8KRm+u+fYQ8qV1eSZ2FSyK9gFX2b/pK3X7Rj6X4oV5n J+UjdVr/ovZ7KDlWoARDlaNUJaanDENKcSjhlVgpQSnGK3F8RoygChM02/GoCD6jlSJfB35fC9b2 13GGIhuOGGDp3UuKcayzczHyNF+CD0mciUqciTdyu96+5Dm050ESxX/BLtoj0+8rxEQ4f9y4sdLY 2IjTSzFkQXKUAOv8bEC7lT74teHovFPaWjgkYnP8MSalwxQlISfnSKklALQhdqNrA6LR+MGoBiOI 1jbaaUKc/WgstuwcwaFDFnNnR8BStHbYOGKAdjM5hEIhPB4P+/btI5FIpIOWAHcBJ9M9smk67rrL AEBzs03O9XWQNJe6gP+Y8X4CfkUk2p0MTZ7oj767NXo2hye1wUBMwhiKSAbLyhinJAfLyefbcmpw Wt+PWziid1C+qe7hvDpzd61gaUWb9uBgYdo2CuSK3Kaw3nvpkE14xBiWY52JzvYjpBVK7b7Q1ItY pyHWaXij/4U2V+ktyx/CDjyA49su0x7M1yku1Nphx84dvV5cxTAzCVo5/ox7wGpLv6zHZHFdD05s HREUUcvANBIoZZArLEB0Ak0DSpzkrXtBVYMqcU0wez/itBC3Q6x/s4iK6jgLa5oQsQh3mLy52Upd bkdHBwCVlZWEw2Gampqy0zDPAZ4HrkpjPfOAh4GU42bz9h5mydRksLemvlZXebj/N8fymS/vYNvO GB5TOG5qgA9dO5xrrhje7g8EOmTYPzjKAMtC2AdUdydMnbqXObmQya4kc2jSsf/S7eftlOJHB3Sj cm2ddh1UBebucYbw6sgBluYyeo4v7MmNbCKJJRiJJajo99DGq3rLyQ9oq/gBNfXR7Coj5tZt22g4 1HtJuyvPr8gcSNMvJ+xkD7739XiFSjZrW/HyZpv9ez1Uj9AMq7K7+690xM2+nkx5JFKJqCCO04J2 DoBjsXNPKY1NXo6bHsbvbUWw0Wi2bPKxZV8kzerTRKNRRo4cSXV1NbFYjHA4nA1aM5NO8NuAncAP gYywh83bovnT7thbQPygY6kHec7pwzhjeRmRqENRQGEYqYarRCfu181nnCNlTx816X1lbJ3We2o3 AnO6YZAAVhzUKHB252mE7B2cEHbzo7r9/FvxzfupeG7tODI3MjRBePi9B4DesbAEzVndAjPTR7lC X2gDsRaiot8Xb8MmvXXJK3rL8s/rjedOSR5tx47tO+gI9xyUN2m8n5uurs5zHSZ0JNKDRRux1VM9 6pJjNmtx2N2g+dPLlax6zsuWLSXYjg+0F42Z4VSV5GCN04qT2IMdb2LHLj91b1RSFDSYM+sgAZ/L rKJxYctGH7/6+wzmnFCLk8YEmprc6JDq6mpGjhxJRUVFrqU7RcCXcdPudovR2r4rnj+br7UXzDlZ zh8wTaGk2MAwsiMY7BPRkZd1yzmn6vBHjqa1pKsy9M6mazlWYh2YNT06D3LQnSLshu8SfWWd7rji 0zr22fE6fsvhpUBqiGEdGYalOQNNWRpFTw5U5C9aSiGeEK3AOgGxTsAT/Y7esnTt576zfcsP7ui5 0MOimhL+57sTKQ4YecxBA+xI+qD6kCx9NdLLlUTEhjbLwTv5Yp7d+iiGauDQviImzzAIhWxMaUeS ZqLWCocAzW1+du5ySMRh4lhhwuxGUBbahvYWg/37DF7dWM3m+CmccOaJ8NobvPDi6tRlt7e309DQ wDHHHMPYsWNTueDT6xX2Jhu3RkkkNB6PdPctOs2gJtEVqaBzPKQsp7W2pmM3/Q0n8qZuOf8ZVNk6 UPVgx9CRBE67hZiCTrhpG9wZ0SR8OI7riNMW2A1AExCW8pcHNoOo+SsaGzBI97M7QPxVCMzvC9Xp unendSJO6w+x930bvC/q1tPuwxj2BBh7JHjv4FIia4hhHRnAcrg05+id169J7hJd0EPmWq0gMe/7 Xxg975zlpfqxvzfL/oYYBxst9h2ME/Arjp9VzMVnlnPy/FK36ni+5x8mY61ZW4fTa2oP0fF9YKPQ VFcPJzj64zy1+tecU7SNnRu9BEIeDGMYlm25ifpsP5bEKSmKMWOSgcfX7M4W2oqOZpPtu2xefPNY rOEXcfyZy5nsKyEWjRGN2YRCodRiaNu22bt3L2PHjqWiogKv14vjOOlrDnutJnuwwWL92xFqZhfl 6OgC2gdSDropLxp0By9Ax2Zix2Zi9ydSJYUqCaBZNy46CGwDWQ+8DLwg5S819gGwNqB5HTg+02Wl 3TTaVhykFHRrH6+x0w+b8EPiVOBUrGgUUS/r1mV/QvyPIuZuKX5s4GgzxLAOP2DprQuCwJn9yqWe r4ybJm+NShFYvrBEli8oyR9Sk6+yMwAeiHTlba9vSDB1xVtzgMd7vFwtU9AaR2sC/iBVo6uJ6Wt5 5JV7uWDWJsorIoweL5imSvoiWt3FvVoBFo7toaPDYd8eYf2GADsC7+fkK6+kbhBQTAAAIABJREFU dNhIigI+DMN0UyMLLFu2jIcf7pp8amxsZP/+/Rx33HF4PB7C4XAq77vWOadCu8lzq9upmVXU3QLS QPQJKLoIonf1zDZyzrT1yVeZ67MHqAKpAn0c6HOTv0d146LngP8BHpbyl2O9+LEcvaP2J2juznju nZ87VkLJKRB/qB/Amq1Ujh9tLweWoxM/AlmtW5b8CTEfQTs7JfRc/8CrYygO6/D7sLQsx6G8sLxT FJ6jCnKnhUn/38kDWD0teI4pNwYqqYd//kczbWH7G8BZPautcU6nI9w0vYwaPpoJE6YxsvYKHlg7 k40bDbZvsWhrs4jHbOJxh1hUiLRrDu1XbHnH4Y3VigdeqMFb+wvOvvRjjB4zhVEjq6muHsHw4cMZ NWoU06dP57TTTktlKAVwHIcNGzZw4MABlFIEAgEC/kA2EvfYSVa+0Nqd4Xb2P3snEAQJ9NHPU+io 1NNx8uVTFz9wBu5kyNu6aen7dfvVqpfT3YfFGqykD8tKvmwN0bfBioF4B+IVz2UW+MA5Cezb0fGN YD2vW078sG5aVKbfqM24Wb3h+G6NqA/8MnVPcuyDQzbhYRbRmxf/BrGvzdtlchXE7TXYmMMX6dPi hUiHy/IFltz0Li+tawX0ftwZt5z2jSnmQUtblSLCr371K5YsWUJLcwtbt21lz67dvPPqI5w+Zh2j R3XgDWhMBG1D2PYQa3XY3DiV5rJlLD/nKiorq6ioqKC0tLRbUQqtNZs2beITn/gETz/9dEawaGVl JXPmzME0Terq6rJT0Vh0FbTqJj6vsOXFWYwe5cm0yDo/m1Oh6DSI3nEE1Eb34BPIx8gEVPnDlHz4 g2JcmHedqn6ndiHCPxD8qVk3pV3Wa5ZA+SSwNw3yPeRU/kO4sVx3ABsl9PIQGB0NJqEdnfJNZTZs RsXeJ9IxFWzV7TnqAvxa6UB12B6tN8Mc3FYf55UNEbeiiraqgf8GLs++AhF1lhYqO38tKytjxIgR lIbKiMViWJZGFpzHK7uOo/G1bfiJYZqCYXjQoqgYO4uFZy9hWNVIhldUU1FVkUqb3K0JRJg0aRI3 3HADzz33HJFI11zAoUOHeOeddzjmmGPweDzZqZR7DJOOxTV33neIr3xyZO6CMdZGsJeBMRPsNw+z 2kgBZmeO7ZzGCwm/+LzW+88Sqc6ZSkKm1a3Sb9Z+EeEHaFGoTtAC4q2gt0PI6CEXV3/uIafCVgKf AW4G/qJbFt0qoZfXA+iHa0UurDusAKa31IpMGvg5tI6LiPdfBmxTTy1e9wlleFrmiqdhhUjkclR4 grtEv4cBKdf33t4pgLHlY2hxHzS1p5LY/b97DvL5nyWrNOvOeXA+DvwsfTdD+fY6OjFSa4eqqipW rlzJzJkzcRyHHTt2sHXrVurr62lqaiIajSIi+HwegsEgpaUhhg0rp6KigsrKSioqKggEAr1mFW1u buaWW27h17/+dQbLUkoxbtw4IpEIBw8ezC4p1qMva3iFyTvPzGRYmZG7JoIYEPosxH4FOnyUqpwG /4fXE/jASSJGztylek2NgHwbuAW0O4CKdgvwKgeKDCgvytFSg0Ht8y79iYHcAXxFQi81MSTvLWCl S/jVzxg+3/5FYjavEBW5FAmPLEgRdA+DbV/2ybdviwdi4ZQ5WPPBzbyxOZINWA7wR+AvwH4R80uC fYqTBI0vf/nLfPWrX8XjcU2rSCTC1q1b2bNnD01NTUQiEZRSeL1egsEgoVCIYcOGUVFRQXl5OT6f r5CqOGitefHFFznzzDNT+d5TAGoYiAiW1ffU7p/5cDU/+MqY3ERGazBGQ9llEP01fciDfoS1zgPB 7/4Rz8Kr8pUB06/VKiw+j+ZWBI+7bjKZSshwoFhgeNBNB1N4efl+mIzdRtQtINdL6KXnhuDjKAGs dEms+aTX8BxYhtH6PpHweUikcsBKUaheZQCXFw5GXW+sgrd2RJl9zSYyCEoXaOWUhQsXcu+99zJu 3LgU6GitaWpqYteuXTQ2NmYAVnFxcQqw0svTFyrt7e3cdNNN/OEPf+hWnLW/4jGFlX84lqULirsW Q6dmZbULWp4pEKqB+KNHL2iZ86Hk1hUipX/sUQWerT0HhzsQRrqglWRanaA1IgBesweKPpisK3Ws CMjHQd815Ns6ygArXew1NxeJ58DpqPb3i4TPQCKhAYFVX/Qq7oeWtlR5q2/cuZ+v/8/+HLqVG7Qq Kiq46667OO+887oxJMdxOHjwIA0NDYTDYZRS+Hy+FGCVlJTkrPhcCMt68MEHueyyywqppFOwjB3p 5YX7pzJuZBaAOroLtMwyKJ0Asj1nvqzBZyT9kOA3tuI97TgR6THkQT9VOxLNt9BcA9qDwgUsQ4Pf gRFeGOZLq4uYL96m11GxLwBmg3xCQi/9bJD64SRgGTAXN6dXkXsOWoFdQB1uwda9hxELhiWvYxJu QbcK3KK/3mSnak5eyyZgI7CHvlWAKgFOABYkz1EB+JMNGsad6NgJvA28hZvPNt5vwMroG6//Wwjz 0NkirVeiomcg0UCvJl42OPX0W8YxBFpNiIdBuf3yuPdvZOPOXHruZJW+ch3ht9xyC1/84hcpKcmd nTiRSNDc3JzyYfn9foLBIH6/vyATMJ/s2rWLRYsWsWfPnkHVruOm+Hnqf6YwZkRaoY7OJITpwBUI uipnqHxs4b0DLmMGlP7wepHSXktl6ydqhTgnYPN5hPNA+1CA6YCpoQwY5YUST1J3enWqD4apGEeV XSIljz/Wz4MVAdcAH8Zd9N7bUikLeAY3n9mTg0CfRyRB8lRgITANN66u0IbYD/wS+Hov287EncC4 hOyMHD3LoSRIPwTcTVdmuoGJs+YjlZgNF4hqvxKJLkNi3n77sHIRAPHBobDrw1Dw2sYI8z+0mV5J i04gIixYsIA77rgjVfU5L4O0bSzLSlWGFpEBgRWAZVl86lOf4mc/+9mgsiyAsSO8vPrHaZurKz1T 0LjxSjrJtEgClnbcsICgCSEfeMwegGsgQNZP0At+6zW8y+eLFL5yWN9fO5UEN6O5BNEjMBBMDR6n C7jKPWmR5/mUbBCAWpXXE/z3uaLO6GvFnAuSwDOxn2d+EvhIkvH0VZYC3wIW9QGg8sl3gC/m+c8P fBP4xADP8zZwHAxSEQpV86tDavaf75SZT52hY8dOwBr17zihF3A8Vo/FT7tVwMnjOoglmVNS5/74 92YK6/vuDpdeeilTpkzpFXwMw8Dn8+H1elFKDRisOo95xhlnHBaCsmtfPHztf2xfRpwvEaWduLht FROICkQVRAzoULDfgc1h2NIKByLQngDLSQuyzw7syv6c9dLKtRQkmAzmzBWPVUD7JdbUgJ7SJ9vl srqNclXdx7E5hoQsJSq30q7qaDZi7FLwWgJe7IBNYbfCT0L34psayGjdOJLEzq/2xQ0J/Bh4cABg BW6g9Cqgph/7LgROGgSwArdqez7z71Hgs4NwnlcHbBL2Ogq+9jHRRng8qukyUeH3Ie1z3NIrvaW6 zRrhBWgzIBEBBbbWTL5iI9vrC6hTpxPU1NTw85//nPnz5w8KAPXHj1VfX8+CBQvYnb+KTX/lAXDX gerVtcNxuBmLG9CMxEqaiHaScXWajNLJwDqd3xq8Al6VzEmNu4jX1m5Htxz3Pe5AwnZLeVi2+9kw wBOA4WOh3IBRHgi1k1nlpjdG44XQbz8jxtjbBtIQ1m9qxYCxOJyGcC5an4TSFZiO4HGgQmC4CRUe NyxCBotlafCc0kHgi8eKBHvzL3mB3+HGCg6WHEgypr5E034O+P4g2cfHAe9kcxjgT0kTcDDkY8DP 4TAWUpXjf6aTTrMfOOsu/5lIeDfaKe/CK52mz+lKk71ezQfxjpSCvbguXBBYCQ6IMH/+fKqqqt4T sOr0n1VXV7NixQpuu+22wTYLn0ydZ0HdAeAr+u+1t2JxMjZn4chSLKZjSxAHcVPRpbW7Q9bSKZ1c 9iNgieMCngiW4yaxSKV76SzU4IDRDk0bXCe4R8OEY2BuAIqiOcbEXI7LBCTqltN7fvsexfxAnU46 bO8E7tR31AbRsgBLzqFDnUWLM52tcYURhhAwwgPD/a7paA7E3yVgrQqid12Fm8usJ7p/ey9gZQGv ARuAFtyMs5OAE4F81YCG41aKWkwf6qEVIHFgX9KPZCXNuwrcgNrOOkJNuCm3s2VFL2B1CPh70rF+ MNnoJUmf2oSkP29CmvKk0ogfkcrPohpPwbHL3dpvnXrRmeokHbySv6WDSyypRMmf7lvZXBDwa21T VlbG+PHjU0UgDidoaa2xbTvlB7NtGxGhqKgIpRQXXHABP/rRjwYTsCK4sWaZbX1KXQL4a/KF/mOt D80oNGOxGIUWHxZxhDg2URQJLKIo4tgSxSGCScSOETM82kYowqfG4GEyjj4Lrc/Da5dg28mMM3Zy ksNxmdue3dBswOKREMoXEZ/1u7XjRK21V0Tig6ZzH6rrSHaKv+v/mXcLljEHR64nrj5Ai1XMrijQ DkUOjC6CicOhOgBGW9+BS0fA3nmR1vq2HnxxVyed6zndp7jpsr8DbM3xfwVuxP0tSeDIltokC7lt gM32Fu5i9ZeSrKk1B0UuBo5NsrqRdJ8llOR15pIm4D+A3+LOCub1MgFTgYuAy9LNziNCO/T6k36H Trw//xRynohREWhXYLnmYNzSHHPZO+w9lOgVsASbk046ibPOOosFCxYwf/58gsFgXqCxLCvlu3Ic JxU31Vn5Jt9+nVlEOzo6iEQiRKNREokEiYTr8B8xYgQTJkygvb2diy66iH/8Y9DSE69KOk2PrIn7 65qRaP0DHH0Vli1YSbASB5TtmpgeG0IKllSDrwA3qRquKf3eZFHHbj28eniV6Fc3T5C49X3i1qXE E4KTAEmAYUN5GcydCuNjoJrpU8Cg7xNt+FaMEZFc+W+qkqypMl21k2NXaxLMHingRMuSg1SumbZ9 wGSgkOyq+UzCnyQd5AOR44D1OfzjcWB5Egz75AYmLUX1YWdYztoLStAN56fCE3orjJr+k+OBRHvq 1v+xpr0AsOqSUaNGpfJRvf322xx77LGUlJRkMC0RwTCMVPCoabppYqqrq6murs49HNo2ra2tNDU1 0dTURHNzM62trUQiERKJREaQ6O7du1PLcW644QaeffbZwQoifeE9MXE/vKZe/7bmahzZRFy+huEI juOyLaVc4EIg5sDmZphZXoCSHBCiP5+Wh10M3rXPukcD2/Qva6+kSL6CR32VuBISChwLGlvhhVWw dTQsrgZ/c6FHBr2tGPQkcldBuiUdrLI68WWdbLgAeRb4EG4GjOyRf0TSn3k3763kC8/4Wz/ACrLy 6R/2FLmi2s9CO6V5U9JkIFTaM3A0ZGHTvX8rUIG0g9/vp6KiAsMwsCyLxsZGdu3aRXNzczezTESo qqpi/PjxAMyYMYPRo0enlu90g3zDIBgMUlZWRigUIhgM4vP5UqEQjuOkWFZzczOrV6+moaGBU045 henTp6eOU1paOpA4r1XvlUbKNWs0XrkVj9yDV4FpgMdILkJX4BhgG7Av7lZPLkRi66Ycseu/sc7G L7fiN/6A3ws+L5hed7ZTe2B/PTy/GxIldJ9Bzdettgokxucx5z7cnaFDkuX8tY+Xf38PbOwK3nsZ mef3DYNx8MOf09tJXNlj+EK+sAcxIN5lHjsQeeTFtp5pOToV6T5r1iyqq6sZN24cEydOZPLkyYwd O7Ybw0qX8vJyZs2aVRCIeL1eysvLmTRpEjU1NSxevJhFixZRU1PDtGnTGDVqFEVFbsK9lpYWXn75 ZUpKSrj55ptTubJ8Ph9z5sxhzpw5+Hy+PrUq+esZHplOf1WdxiufxiPNGMkS7yi3GrcosBVYyg2h KGiQSUw6otd/9RoHv3wev2rB5wGPB0wP7kSeB1obYf1ecmemyKEb+hAQycWirurBhOvPTJ0GfpDn v6W4wajvpeQLYSg/6gFLrztvGNo5u09FLFIvD1jRVGYG4G8NLVZHPoMSbbkvHESEmTNnMm/ePBYv Xsz8+fOZOHEipaWleX1SnUyrr2xHRPB6vYRCIcaOHcu0adOYPXs2c+fOZcaMGYwZMwbTNNm3bx/r 1q3j3HPPZcaMGQAcPHiQV191Q0wWLVpEVVVVXxzue95jxUTeV7cfkV+hkqlkO9/t5EOzBQ4WOnEl M4486K7Zi5L7UyzRNMEwQXlcb0l9M7TZ2ZqWx/0bA6xcynVlntP/Bmjrc59qPVVwU1Dnev6luFHl /e+zHZcM1K+dzww6k2SdzYHIYfZhhS/CcQL53FQ5g6w7JT3Yz+0LvwXGA7NzDTplZWW0tbVh2zbB YJBFixZx/PHHM3z48CMa0mCaJiUlJRQXF1NZWUlVVRWlpaVs2bKFt99+m1GjRvGpT32KG264Aa01 WmvWrVvHxIkTmTZtGrZt09jYWAhgxTk65E6Ez6EQty5fMpWGLW64QEcylsvsYWx0NDh6in7uhGpi joODg4WNjY3GIYHGwsZBI9oiobVc+3q/p1v17TUiN69x9zflSRxuwEimxu5cUN65vGd/B+RZzpXp w7LJsWizDHcGL5c81C+QLV2pcWfmXgdG59hkDvBKv0E8+MBAp7HzxYONBr4HfJIBLCk6vIDlWCsy iGwucpvruzIgnkhn381o9STwgVyAVRoqIRQqpaWlBRHhvPPOY/ny5UccrLKZl9/vZ/To0ZSUlOD3 +3n77bd5/fXXWb58OXPmzOGNN97A4/Hg9XrZuXMnkUiE4cOH09HRQSzWIzMp4yip3qxtNouwE2R8 6pLSEzna2g0yzQCstJHKsSGRAM1YJrEDJ7mPhcYxNOLT6OQ0pNYWijaUHNTbT9qPKQ141F686iBm yQ4peejPBT2bTrBybYz1mDjYolILVVOR/BpaouSovNZ9hBUP0G2GsJbcYQhNuIuZByLb8vw+YUDP U78tItMHolsvAw1J3122fBx38uGTuAGvRw9g6bXnVWM3Lu9Xt7I9YLd2GazCE7Lo1TbE041umoYw dsxo6uvr0Vrj8/l43/vex4QJE94zsMoGrlAoxIwZM/D5fGzZsoVoNMpNN93ERz/6UbxeL6Wlpak0 Nx0dHfj9fuLxeE8xW6aIfFBrfdd7fX/qujpH3127AfT41LO2tBveoB2wnaR/qwda3eXXdhc0d64B VD535jEz+X856PGZBQwBbezQsS89KL5v9230djiAJoHgc+MAk/44lQSusO2CWK8VcUxAZVcHnp5n 4924AZ+HQ0YPTF+nD3QgDONGpX8lD8JflTQPf46bIXjPUQFY6I7LcLQ3p572VOsQwLazYwz/kPx2 MPs0I0dW4zhOqmDp9ddfz8knn5xRBOJokEAgwLRp0/D7/bS2trJkyRKqqqpoaWnBNM0U0zpw4AC2 7Qa95prRTJPbcIMNB/aY7p/m4YSx0yhhMYHjH5LAd/b1Y1huS2WK6IzLsh13CY/fcZf9ZChBrpg7 umf5EJ2ceSwEg+Ll2DsCFBaHlA5Y7tklSxF1mmlb0Ep+w4Z49kLkcXk2npUErcMhVUeBun8PuDC3 +6Zz0OHLuPFgjwL/iztb2qvD8/D1ase6Iq/519NsoZiuOdilxAdxYzjAXerTdfFKKCsrY//+/TiO Q0VFBddffz3FxcVHBbvKFo/HkyqoWl1dzTXXXEM8Hs/IEDFs2LBUwGlpaWlPIFGmULf2GVvurinW 9887Vb+59Ba9/aSnOGnEXkpi6yDyC+JvfqR/z5pydxlPMh7LSZa8cWyo7GRJkLPUWPZzylglI8ni O7n+zL4xK4jd0PeZRiGExsjUzyTrU9JDWZBuxKIVXs9mC8PfAzXLsF/1L2vfi47QgRul/m4v2/lw Y8ceSfq+vt4bQzwsgKXXnjMOxz6xf7ODBjgZpdn/IovqOhemZVTEKSoqSsVYAdx0003Mnj37qASr FKU1TaqqqgiFQpx11lloreno6EhF13fGcBmGwTHHHJP3XjSglXFTr8/inlrRf66ZrB8//lP6tSXP sCh4gGWlf2MU36XUOQPTqkz5QO2Wm3TL+X1Kyqh/X+PBYZ7LqByXHTudM7YWTCjJolBZMS6iMhEh AzhiuLPkQv6aimm6rGMn9gOwagADm658Yp25xESDRxXWTXRsK/b6aE/gcaTGxYzbu7GrkIX+ba3o 3x8xANuGu77xLwX6W8cBXwM2464HnXrkGJYdXoHWZkE1DbOV1HKyM5vck/ZvY/pYWz28MmU2jR49 miuvvDJvsOfRJJ1saubMmYRCIcLhMPF4PLVECKC+vp6qqqqcy4m6OolTCcaCbj8/UWvqx2vm63/M +xZTPeuZF9zI/OLbmCjLqNABDDuPDjkjcDq+0KebsTgVy6kgkQVWYsOEAJT7yU2hspZgkeuSnKQz uydqnn5c53IdudaNcvnzjMI6pqMvdvOIJV+205VDDA0hszsLzM3w3hbz89kXZ/SsB0dY766p0/J+ F8BEjsg1HEgyrYtwF3UXAlwB4IO46we/T1Zc2aD7sHTdNYKzfUVBmWmz35UJ8Vi6Pu+mg2fTHRUp pDUMvF4v27e7kyVXX311QTmvjiaprKzk3HPP5Z577iEcDhMIBFI+q8bGRizLorq6mvb29pza7mak UP+pNafqVbUBvCzBz0WYXIBfRuMVwXDcKG5daDxU4rO6+YwnpOzpXoss6LtqDOL6KyRsSFik1uWZ NlQYMKc3d0pnr1GkkvN3S6tl5gC7XAkGNWh7KVbjbGCtXPpWr51D/672WCx9iZtOJ2nKitOVZlsc qCotsJ+Rq7ZavtCTCNCiD888b31hbsfM97S1jYMOCUmW9ShuDq6bgfNwI3R7Mxc/h7v+8CKSzvnB d7obDVOJ2/P6NTuoDXd07vLRPiCn1nWFu4sqSnfAhsNhHMddhnP++ef/U7CrjKYyDJYuXco999xD R0cHSiksy0rFZ7W2tuZN6ewmutAgLG1+e+5MSngGRUWqT3daWtruPtD3rJ0mOvZH3XLecgk9+nbP 7Ep/jLh9InELrAQYlrvweZTpZmvwFJgHXyl3sk/l8mNZ9Bywlw5i2oOO3qpjn7pYfD/q0VOv763x kdA/J2EXpdghScAykoBVZmYxxB7yxCvvWzlOky+I8hHcFCxHjejDHyTj4KZ3fgY3nvKDwA3AmF72 Ox54AjeKv2XwTUKr43K0VhSS5DF7G9tJ10WN5r7Mfma8r0vHhaZmd2bw5JNPZvr06f9U7KrTNJw8 ebLLaxIJwuEw0Wg0xbIikUgPIKzd5tOOp3ru+uUIzTnXa3ZaJuJ1gSrXAvSUfZDUXG1X47St1K2X LM2r4L+adxVx+wdE4mDFwUxAwIL5ZXDyGPD1YSwUowFoy5nX0WkH1Vsa8LSsqTp2PvENH+px69/U BIhyJ1H7VOI2KcC1LSABKgm8M8rTnCY9VQmWKHhf6QPbmcD/bdmB62A/Fje28q1etp8F/Oeg+7D0 aysUjnNVzkXO+TpT52flASuW7rvahqjMBb7aPq2LnSjaWt04vYULF/Y8o9Yb9KelkznSMmrUqNQ1 RCIR4vEuK6K9vT01g0gPsBWP8wl0MsRBZ/j/koPIIVChzA7ebXYubQcR0PZI7IMrdfNpP9Lt145K tdXttX793/NuJWr9lljMg8Sg3Ib5xXDRWJg6rICYpW4M67+Blamkgul64TSA6m15nGR+cSL/pdsv zLkQWN9ZMxNLP03Ueh9RC2IJ15QlASoBRgL8NiwcDiVe8i/HSffBBTbhPfZQHsdzLpnM4KQn/meX CG52iXnA9bjrK/PJ9cD4wTUJjZa5WNa0vPFWPWVH1skUH116cK8sejWFIh7xTLG0Xdm5gZVIpJhI bW1tv8pwdUpDQwPBYDC1WPlISkVFRRotz2yUcDjcs9O9q1knfuG7+5747n+M+CxCWeZAkGTj2k66 DeI9e1wz//OgY58kseNG3XTKs2j9Ipsjl9NhzcYAhnmgJASlHtes659DpAOtf4KbVfOijMEsxfj6 WnBW+7GbfqvbzpiN9n3X+cNujzJZiKM/QNy6iITtw7LcNtG2awKatlvEYrQfaqog6M0CJ03ehc+q 5HHx/dgp0K8FbjmtuaTlKv8/LgncmMLHcFPnnJxjGz9wweCahFbkcjSSNzuDzucCkC5z0H1pFPdn bfITnWYO2rYb4VxdXc20adMGXIqrP1WYB0OKi4sZNmxY7uEnEqG9vb3XLKUOjnz/Fw3/DvwyZ+oe DST2glHdXw4agMRZiPVNjvXMZl4AZhfD2CCU+TKBrxOsOs3P3uU7Uv78AWweR6flBk+/DzsBqriv oOXFiXwJp3WrOtG/k0oex46uIB7x4URAxcATA18chjkwvQhOGwlLRmWBVS52lV5zwLTxzbs/z0W8 ibsMJ9fBLhjCqW5yALgYN9V1Llk8aICl6y41cOwrezQH870Mj5tVtEsv3iZuvEGX/7jUQZ/e2R8C fn/KB7RgwQJGjBgxIHOwvr7+PXtCXq+XadOm5fwvGo3S2trau0XlpuM5G5sfoTmUMq0ygEuD3VyA P6hfzrjc7/lYXJesJ5kqRcbUxdH8kGTW5QwdsvZmBZD25dqcKsabxSwvhisq4NJyOLcczi6Hc6vh kjFwwXg4vhoqiwoA2ayodzVqFebYfKl+okC+2dbreO9TwRyN0gzckee/0YPIsNoWYtsTenSq52NZ Dm7sS5ce3CMnvaK7zEG+i3anupRSyZkz9+9FixYRCPQ/a4VlWbS3t/eYduZwimEYjBs3LidD9Hq9 GT6tvF1IBHAqZVzdfuBLeVeSWPtBQhyJNGh5Aa2LebUD75fyF9LjLX5L56LgbNB1LLc+5UDEVFDs hSo/VBdBRQCCnj763NK3NRw8U78rcl1PDtA/5vl9DO4U/5B0l3xO+MDgaa4VXdGjUz1vwKi4MThd 8YR21kOWhKirddJSLA4GqagsRyfDG6ZPnz6gdYPxeDwVWf5eiIjknTAfgvUvAAAfQklEQVSorKyk rKysMMByEkpM3xhs7gSezWjz9I4ff3cApuEggFbnECVyo5S/sD5jk9F1MRw+gUMMO0tnEvX/v70z D5OrrPL/59yllt7TSTp7whJIwiIMLQlbEBQegci+iSibiigyLqMy44yODOO4wKCiIOoAgg4qKosY cECQEAhrI4QQ8JcQsoeQvbqra7nL+f3x3u6urq7qrk53JxDrPE8RcnPr3rfuve/3nnPe7/kekOFy SMr1YBzs22bsA8SmPzjAXvdRfrXw65jW7VUrAqYy23PDAlj60tkuGp7dx3MqB1K9yKJxI9TX8+y0 oc6ygofrMg2pV/URUSZOHMfYMaO7PZIJEyYMKX/V5cHsLsBSVRKJ0uHO+PHjK/L8TJ1wiGI1yrQ2 n5BLULaUXnULwEuBNXp3PYyK6hdk1MK7Sv6WyW1PEfCfvVqQhRjFhKADrPoRGdLgQctejcinRT5a 1rvSN1tFF7RmgOvK7FKDIVXO2cMAZ6j8opPLbF8zPB5WkDqOIJw4qGR797aQIj2v38jRz2rPi9m6 SgmjHhZGL73Lo+qSbhmK5XK5bi323QVYpSgVXTrzmUymsvlmhPMcAJnathLlYhSvpJcVbIKgfXeA VgD8kzQ/eeMA+32XgN8S1VB3e1vejoiN7ozQ/KrY22pH7Iuk9rf9Jj9l7zaV97Xp5LGxW0R4pcxu 4zFkyv8CBuv6NgMfYeidbobTajGaWP+C6Ww9mIllAZ+mvErrwuG5817+w93CZ109BFV6N0uVUi8z 6SnJMM+KB71XB0V1Zhd6hWFILpfrliUWkSGz298JgOUVUDS6rLGxkVgsxvbtlfVhjC56N/LJlLb5 uqb1CpSfoVhGfYAeqoO/HbDN6pt27IJfaqVBLpVRj/92QPiY2pbXla2XEFCLckqPsCOQ3wLxMaZW UXeLhmEG5EJpeGxBpV9YuymfwSTZn6B0Q9RENME/DzyK6Yj0ShRKdvXvi2NawE7BECnnYNq8JYAX gR+8QwDrPdHY5gDXRuD1CIbCsRIj7peJXkMuRtZ5SvRbzgNmlzluJ3DfkAFLn/9Igvzq03u5TRr9 R0t4AYXb3Zhp49WDFU/LkW0FS5oyFpF492FVu2WQx40bR3t7+5Abk3blr3YnYHVRNAptxowZpFKp iugW3e8ADXsVDMqUttt0TWsS5fuA08uRFcDbAk4DOKMg3DZy0YHd8iISv1Tq/3dxxd/aq61T32w9 m4AfEXIZIYIN2Aq5LRAfC3T0cLVGLKLpdewtwEXSuPDBnTjoixhW910U1NEVUdaSmDq7Dw3y2NMj 4Mq+AwDrHwrjZuCY6NOTv+xLb65k8t0MrBt6SKgbP0gYjDbhhhQl2aXvNqLtSE+FfM+wf937ubFO Kj7djh072L59O5MmTSIIgopW0fqzrhBTdfcpDheDpYjQ0tLCunWD7DOhfp8QRaa03UTI+YSkeueE oo+XgtxbIE2ULjQeClDNaCdx2r9T/6WjBwNWBSFVFovLCfgEHpvxMOXEXgjZbWZ+j/ht674Oi4H3 SeOTDw7hYL+PvIgdPS+sYRlkPeXba+1qGygfZ0VAZlPYYqZ/W4iRnhmG9W3fu6Bvf0EoXSiqEVhF r5ZCZruQI5BemtwOOhWJYYmDLTaO5RCGhugZi7k0NTbhB0MjfHYB1e70sIpBt6WlBd/3Wb9+fYUH AYXtaFCyC4tMa7uHkNn4PNudE+r6M8Aog2bWg++D1BfEjjuRW5XREPtIBzWf/xH118+U5Jf+Q+SI nX7zy7S2UPZtu42QVvL8mDyd5IBsHjq2QFhXJEEz7JYDuQ44ShqffHUYjnd/FP48NcyoeuA7BLAO G+bj3Quc2hUaDykk1LazG8hsPLkkc73wf7vzWQUsaMsFv73Qu3pMjnmhlzB9aDlB0lJa31PHlz7e TFN9knse2cYtv3mbFSveZPSY0eRzuaHd6SiRv7ssl8sVAZMwYcIEVq1aVVpWpixm6RMDhFh/09da 5xLnE4R8HWF8t0JC1z0IOiGfBbcOnIRhpGq2H/DqKsWpA/eDPs6hi3EPvgNp/oWIDGuMKfu1rQY+ o0tbv4PFh4ELcPRA/I0OiQaoGQO6LSpBGhbzgT+Afn2YgKrQXsOUn5yL6Qp9yBDH+RSw/h0AVham vKaB8vLQldqrwH9iKE5hjxMzpATQ9lMIgoa+SpKF+SrpndfqBi0tdsR+1ScYfs+otpu+0sjs/Vag pJDQ4uiZNhfO25sTL19NOp2hszPDzi1LG+/Gdd3upPfIelmhkY3puiYCSsDSJUt4etGi7lyGG3MJ Ap/ly9+oOEy1BA2VLww46We1ecCPdUXrnQScj3IZyuFYxHoyCSHkI3a9HYNYo+nVZ8fBshUhhz1m EzJqHTJuNfaEv+HOfh6Z+ryIvDXSM0IOaFsFfEcXt16Pz1Q85pBNzSadbqVu/AEkapqR7RZhuneZ UKWxlzjbILwb9CfAS9KwcKSCTh/4VTQhDwfOwih0vgeTmJcyb4gsRk74r8BfgMcYvD78QuBfS2x/ fsgPOfwzpgFFK6b86BhMr8T+GMuKkVV+FdPO/r7ozz7h09AAy7fXoO5DEJyAqNudn+oTDRY8NKKm jVfgFToVaWzp1X779Atnjv3Hk/nDe6evBrER6lBHEc1x6PQ3efoX0zj6orW8seIN5syZQywW26mf kEwm8TyvF11iREI/FNWQlauW8tpfH0a89YRBB88/8zyTx/q8sdbBCwJqEgne2vAW+XxlnqOIoOh8 0BUVT/p92tIYGdrb9PXWFgKOQTkIZTpCHSEuQh7Jb0A3rUVYBaxDw/WorpOD7s6wm03e0xZg1BDe BH6tS1sFb10cN74vzQcfRrLlUELei2ZnEW4bjaYiLoyDyXnHQESRxg7QNxFrEaQeQsLHJfGT1C78 KQHwTPQBkzxvwbTDqo1yPV40obdiGrEM9foXnm8kzCs6h4uhYIyO8m3xCLx8TMXDluh3DZg6GBaX Qh+bNxXpvAzxL4ZgrwE9Hjdu2nhJd0jyezmq7ZzCXW66ZvrSy+etmWVZDhYNQAMqNpBB9W2ULPMX TeKOx97LD37wAyZNmojI4AEnlUoxf/58zjrrrMG2ix8kYPm8uvgZatZ/hmktW7B1c4ToHn4Ai162 +OjXYP1mCEPt17sSERrqhHGjoCahueOPaDr3e3due4CqlfCi2xMgE8EbD84EsJJg58HeDOHboKvA 6hCJ6d/XdVERkXfdbx4WHpa8f/5q4Bv66Kn/hWTej3iXgH86oqUp3BIWz+ZeQn0Xzmv5ykUnbp1l CQijzAqWJIwkMAmDcuFq5s3ZyO33LuSF559n7NiTiccHXyCbTCZpaWkpSS0Y3ojQYtmSP3H6rC1Y 4Uaw9zWsbfVw7DzHtm7h6ds3c92dyk2/NXnworCPf5gJx79XuPjUJPtPayYWi4MGcS90/jBuXM0v /vm6dRdVIaoY3OuzwIroU7Wel967EqBHLGmjj86bhNX5UfAvgmBW97lsG6zAaIwbD2s7yGQ56oU0 wGEHjZ1y/WedFce1bnTEGg32eJA4KkrPJQ7RYC0abGdTOsnnbzqO6/77h0yaPGXQeShVZfXq1bS0 tAypiHrg8wTcffPlnHPE77CsOGKXyElqFvXXsmrDDu55DB55xvBqzzgOTplby7SJYwzRs4RywdKV Gf/A05dWReGqtmcD7Yi7nn8+y8LqOAJyn0b8M4nFavFTPatTFnfKUW0Xd+3/bx8du+yrV6Smx5Mh lkwEu7lErk5QTaHBWlCPn81vom7fGzj33HON1zHYgDsij45oDisM+cm/n8QnTl+I44zvpyxGIUyB pntSGlbtgEoFnh8Qa31Jqo/0HhCu5a4Sif9wxDygd2s4CLtAZ0ROuCeU9z+8SN6/4GMajJmKuh8B zkWZizATiyu79r3shMRtF53ZOd2NB4Q4qNQSlvCYFMBKItKAiMXHTszwp/t/xrp1ayvsElyUUnPd Ee8UncvlCPwAzwvQfkthxMgZ2xOjT3NFsioi8JWLm+ur030P8CJGEKzezeHgLvGwKrHjDrZmtE5z f372SRwx+7AAiYdAM2JPRCynhxrRC2cDVNNosBbRDG3LavnLyqu56nNfJDGCod1OvM1ob29nxYpl PHrrlVx+1gvUNwTgHGwaQwyTeX6WWOurVQ+ranu07XLVugMOO+i4GS2d50xt8I8d3xBMGduYqt1n VOiOawmYMt1HYoYQJMSRssMLQRQhAVYzhBs5ZGaWB5/8Ec+/cAzHHHPsO6aDTjabZe3ataxeswbL z+PlonGFKbDHDCMw2pz+vtrY/QvS+epjXbUqYA3RTp6796Xzjoz98JS5G2onNGWIxQzPKAwEXw0H yo4potFKoNSVbknVPUMt04BTaoEEjp/mq5ds5vL//ir77fc7xo/f/aVVXW3od+zYQWp7B5mcRzYb GMc2XAf2KAZoDlz5jXQcZuzrHskCFgzia0dh+DGFtgJYWuH3x2P6xhXaDozaQKk7Vwe8r8izX4ch Qe5MdLAPcBKmfm0iht+TxXRfeRlDqnwFwwvCPFh8YBgii/WYYuaq7amAdcVZW24+eU424cR9UDVP jIDlqBmEGga4YoNVi1gVhEsKIglCq9HQA8jy7U8u5sYbr+fr3/jWTpNJh9O6Woj5vkcmm6ezQ9DQ Qiwfgq1gjx2W8wghrbPkp8CMQXztHOjDkP8LcAJFImVl7LP0ZUz/BMOkLmWXAsVaWG9iSlPaBzHu McC3MFpQ5WRIP4ohJi4BrsGwp8dgatOGupr6a+CCKnzsetsl4t4fP0nOOXF2kLDiPiqCUINSZ164 WoeGtagkURrAGoPIGAbuZN1lNlhNqFWHIowZleHQ0XexYMGC3arAAHTrdTmOg+3Y5DyfbKcQBGq8 Q00N47lszvrAuP2//bmGnwzia7+jp+VDl81h4G68RJP+9L6xem9OXYHVRABXbHtjauoqtXHAw8An GLiJg4Npp7VXdapXAatia26SWZbtI4SmbZ49FXGmgj0VdaZCbC/UnYrGJoMzftDa3RYxLKvZ8JPU 4oz3beOuW7/MypWr6Ke32C6xRCJBPB4nFosRhEouC/lcV41lbljPZVtJPnvh5MtvuHrMtyv8Shuw rASwVKLHdBBQ3O5nJeVLPk4D9ivzb1dW+IaygBvorbk0kHVG3lXVqoBVmaUzSTufB8ECK4HaNWap XhKI1CAksbQWS+OI7mR6QWqNtEno4IjP9Z9ezQ+//21y2VxhUmnXx9yOY0JTAde28PJCLttVEJ6r MPKq9BrYJGNxPnXOuKu/+bnmn1bwjRxGo6nYzqrg2TirRErhXkrXuTmRd1Xu5h4KHF/BePcDzu6b GOBpjMTwFzHKnT/FKCIEUXi6Kto3wBQKrynxSZc438Yy+26pQscenMPatL0ul0lvpbYWJOg0TPfu ZLP2ycYM3hTBQu0GRDMQ5Gmqb+eIaQ/wxwdO4Iwzz8R2bFN4rexSMkcXvyuTyZG0s/iBksmFNKpg SWi6GldMbwjpT6BRUEQskvE4X75o2icbG91Jn/2PjfMGOOjdwFeK8jpHYmRrV5X5TgzT8LLQgn7C wdn0FnYLIs+nvuDFeSVGSrc/BD8Gk1gvtPuB8zHSfsVjPIre0pEbgP3LXMD/AS4qAsLTKL0gEFah Yw/2sDak3TWpdiMKJ9oBwXAX+wtIiJBA7VEgLlYIp81t5/d3fYM3VnRJtUivR3VX+FsiQiaTYc2q N7H8NGGgeHkpyK8NRoDQrmzQoVlx/dRZk0954Kbp6z754Qmt/ez9Kn1XvGrovzPxISXCwVeAl0rf HD5V9HJ8FZOcL7QTGXjBYGKJbc+WACuibY9Dn1VTH7NqWPwpdWWDMvsGVejYgwHrje26NtPRgKig EoBuQ4f7nkehpFj1qDUWkZC43cF3rtjC7bfdguflS86kkTbP81iyZAn33HM/tU4eRQgDJezubjyY 66AVtX8XUazQxhGYd0z9xK99asLz3/rS1BvK7B4A/1ti+7n9PB/n0JeP8Rt66AOFNoG+yflfAXcU AU0Ck0jvz0q96c6kLzXj79o0dbxUAWsItmN75q1Oz43oDArqmRfdCFxWURuxmwilHgEmjd7EOPv/ WLNm1S7PYYVhyPLly7nlllt4c8liEgnBsgGRiMUhI46aIjB5dChf/FjzF378tQmPlNntHiBVIozb t8S+iRLhYIbyHY4/ghFv67LOaN+lGJG2QrugaN9ie6mEJzQbw/u6GBi1RwCO6pCeCmn4i1YBawjW uXnr63nfjlQ2DefTzNgRud0gMURGE+IgCB8/dR133XEzuXyGXbVaGAQBGzdu5Oqrr+a5Z59l9CiL xpoAxwbLEuMoKSNPvVALUQcbmw8e03hCmb3WR/mjQovTN8FdDsgex6wQUuIYlxRtW4DhXoXA7RV4 Y4X2VJmwcxbwc+B14GdRDs55t07Kd3Ot3x4BWACJeACihhhKLCq70ZEBLECsWqAOBGpjaT6w3938 4hd3EXgjn34Iw5C33nqLK6+8kgcffND0HgyUpBviOorjKJYlkSDhLnlnIwKdHeT7uWg/L3FDzisx 8S8oem40Cu9KJaKPjsCkcN87C87zR4zSZKFdRnn6fwa4gvKrdC1RWPkEpr/fSbvyGa/aHgJYdc1N +zc1mayRYCOSBLFHNIukIogkox6iFkceuIWGrd/gsQV/RsNgRDybMAwJgoDnnnuO8847j3vvvRdB sMSmJmbhOILtguNGVUUSZ7hKc8pDVaQjH1o8uXhbf7K4j0WeT6EdjNEY77IG+ibjNwB/KuUoYJjt hc/YW8BDBX/fGoFWoR1ZBHLF9lwERC/188ZzgGOBB4AfMzDBtGpVwOqx6ZNj+7SM8SEUo6kt8Z4u OiPnWCNiY4mFqIfgc/qxnfzx519ixcpVILlh9e/CMGT16tVce+21zJ07l0WLFnWNAkGY0AhuLMRx IRYTsAQhxkjXaCsxQoTH2ral1r3t9UcI7aRv8t2JvKwu+wB9+9/dTUGfvSJvp/h895XY964i7yyG Kavpz16IvLdLMERVrx/guhz4XtXTqgJWxXbkwdaRNXWpCKQcUJcuKsJIAlZPv0Zjbqydz52xku98 9Yts3pweliR8EAQsX76c66+/noMOOohrrrmmV7fmMBrK4ftauPEAJ6Y4rkZtjOPosIO2Rv81NJJs vpPbH3j7uQceT0++9sdbB6rX+yV9V+LOxXQklghICgecj0LJUnYG0FQ0sKWYDjGFn3yJEO/8Cryi zii8nBvl1b5L+e4xl0bnqtq73HZJYnK/vXSeSABqoeQNuVNtVGKRTruMSD5LRZGCFj4WAaMbs3xo v8f516v/iW9c+03Gj58waPG+XC7Hpk2bWLJkCffffz+33nornlfuJR+CCjMnJXBjHrGY4NqWCYnF KvjtQwAu0WglwzLhHyGhZnn8ufSO+U+lP/29Ozb+qsIjLYtyP4We0V5ReLUEw5UqtEXR9mKzgY+V eIPc2M/bpdCmYZjv8ysYsx+Fhy9hCqI/A/xbBLLd7ypMMv/Z6pSvAtaAduh+dQeJbjWUhjBnXoTa AFKPihvlcoZZjryUNI0Klq1MaUlT23YPH/7wCi699FIOP/xwJkyYQE1NDY7jmNZZqgRBQDabJZ1O s3XrVtatW8eyZct45plnePTRR9m4cWNFfl5d0qUm6eO44DiKWNrt+WnXIsGQf6+HhhDqDha+kGmf v8C/4fpfbrlmkG8CxZS1zCsYkhWFXs/Sw0wv3LfUKsbMMh5NpT9TgAuBBwc5/u2YEh0LuLbo3w6o TvcqYFVkk1sycdCokYQCOQh2gGTBigEJ1IqbUFFswEGkhwYhAGoXPMs64HMsWCgu3eUsGqIKnq/g 2hw9U7n9lmf5xFOLiMUcZsyYydSpU2lqasJ1XXK5HKlUio0bN7Ju3To2bNiwkx2ihTH1Nq6bxbYj HBU140FNa7yK57C5GiohPU1q82iYJ/Q6WLYio796KHvrwr/mrnj85XBnl0P/HHla+xds+xBwRNF+ a+ibMC8M6Yaq7XMSRg5m00589+kSbmttdbpXAasi60hbvjqhI17BIyR5hDyEJpSRKNmjIkASjbwu 0SQ4AmHctLfvp5aueIILDr2CQgXfs7AISboZTjwgzu9fFHK5PC+//DIvv/xy5JzJsK0iKrDPGMUW QSQK2EJAfFQ8BA8ljHJa5dKMfgS8PqiPhD5KHjSHn8+yaUPI7x623lrwCqfd82RmqN17M5i6uu8W bIu0gHrZHZTWsIrTO1GPeUPxKP2XtBxMbxmYURFQFnO1PoVZzVxIaea7BXywxEOytTrdq4BVkT36 jC48aFr98aHVHhEmre6Ed1fOpUvQz3hgXtRhXMy+vo2GNagTA2lAiJvu0diRuoN2eyCm8bSimoOw HdF8N4AFIfg+aGj2mzleEQlQ7Z1DG07Kgwi0NIjhXamaWkIP4qGPZeUN8JAFiRs1i2iemesSgAao 5hDxUDUfK+wkmw9IveXz+HNO/o9P8y+/XJC9YRhv2S8xqgflmOMdmM7RpexwYHrRtgUR+PR3YS8p AU4X0JvjVRflpyZiiKpPYeoSN0WoPjbKs5UiyFbzV1XAqsy+c+e207Lt8SVnzq2bVhvPYKmCZciM Ygm2pdiOwSDHFWwHXMfke2w7QCRAbA8JAN2BWjEIa41onzigtgm1FCQMDADodtAOiNy6wId0B3h5 iyAwoWnMMiGZUTodIVMh7oBqSBiC51nkOiEWg3iyA0FQ9SLFBqfHMZAANG/cMclA6KN+SD6bZ/MW lw2rlXsXxpY/scQ/ctHf8puHedQbMLWBV5T59/sor+RwPqXrDAe6xA9hKA+FpTlHA1PpYdEfC0yi Rx55nwp/z2bKlw5VrQpYRU/Lps6Or/20c6+FL47+xwMm+FfOmqT7Tm5WOx7zcGKCk1BiNjiuEnMF Owauq8RdIRaHWEKIxRU3buFYHhLmUOlAdAuiNuB2CzEoHoQhIj2eledZpNuho13JpBXfg0AtfO3x zIx3V2JWifTs0+15Sd/0UlcAqFJwSHP8dM4HHwIP8lkhm1FsR5FQcBNpLDuHhK6JZrrwCh9VnzAI 8TzIZEJSW4UtW+CN5ar3tcX+564F7ZeP4G27GUMHKJZz8YAflQGgWvqW1qQwyfOB7G0MebWwTrEG Q4/4fvT38xj8+kQW+BzlKQ9VqwJWaXv4hS03Pgw3zpza4Ixv1FP3bnIvHlvPEXu30DKuPitOXLHj kHDBjVu4sdAAVhwSSSGRDKiphWSN4MbAtn2QvEneq3ZnrnpaRFvk80pHe0hHSmhPKZ0d0NkpBHll zXY76mOoWFgGa7QvFolJj6OWWQiw1STzjc8UCdcoIogVSGiUVUVQtVGETR2C7wtePiSXhUxnlHwP lZgX4LoBtp3HssQURodK3lO8rJDJhGTSFjtSsH2z8vzrdmbBUj3lwb+2Pz7Ct+vVyOs5o0R490KZ 78ylr7zyExghvErSfb+jb2H1ecAPo7DwEYza6IEMXCLQxfv6MqWZ+FV7F9o7QobioClurL6+4dSp DdlzR9XI7MnNMnFccxBvTOaJx0LiCUjUCImkkqyBmlolWSMkkxCPm1IXyy7IZakShuB7QjYDHR0h HSmLVCqks13obBe2p2L8+z3C6m0hKhqirFZluUkWBfkojNimYm3DspeDpgXNWE58mSppgnw29DKd vS6mE69RZJYgl4DOEeQANKiZ0qDyrfMsRjV71DcptXVCshbchOLGIWabsNiyDe4GvkUmr2Q7hc50 SPsOi9Q2eGxJ7fq2Vc4hTyzZunkX3Zr96Ls6+AJGzbOUHULvUh4w3WsWV3i+RuDUoufSw6hJdLnM MYw887HAYRjOVmMEYNnIU1uCSfKXS8yXsqPoW9T9IFV10SpgVWL7jEuO3nuMnD2uIfhgS2Nszszx 3sRxowKpqQ2J11jU1imJGiWRENy44rohlm3WBBXjOAU+5HLQ2QHpdmjfYdPeDu3tNg+8nND7X8wu D0R+imV9X/Od/ohcYCfmzJrozP7i8TzVPDpLbUNIXY3xGN24ydWJbYqhLUsIQyXwhXxW6UwL7SmL rSmbR1922x5ZGh6xcuPIjLNqVasC1jDa3uNrmw6Z4n5r/7HB2TMnM3ZUY5a6moBEDcQSEI+J4TlZ PRFBGICXh2wnpDuUbSmbzPY67lnsvvrg4i3n+kH42q4a/+dPHJU6fN/2+rpaSNaExOKKE7ewHcUW 7W78aqgXQjZnACuVsvnz4rr/d9vCrQdQVbqs2t+52e+WgW7v8LKvr8/Of2pZ/rq3U859q7fGJ2Y7 E3slwtDJZRS/U8hk1XwySjZtclWZDmhPKx0ph43bEtz9on3znxZv+VCounlXjt+NJ9ZOa3LPiFmB +Gq8P89TvBzksqabTjYjdHZCOi10piy2phz+75Xkkw8vTs3uyGkVrKpW9bDe7T/gmAObrjpgbHjV /tPs6RPr8uI6eWw7RCSEUAgCIZe1WLap1nvk9fDyp15L/Xx3jfW4WWM//oEZ3i1TR+cc1/axnRCx QkPvwKiQim/REbis3xwPFr4RXPPQ4vZrq49p1aq2hwBWl01ssJsP3rv2qnGNnD+xQfeqTzhJ11J2 5AiXb/KXvLbBPmnxmzs27O5xThubGD1jcuKbkxqCoxNWflTcDmzXDkQsx/LUZmu7rNvQEb/3r8t3 fG9TWturj2jVqtZj/x/taTk467Z7/gAAAABJRU5ErkJggg== "
         id="image1513"
         x="760"
         y="97.333389" />
      <g
         transform="translate(-20.583749)"
         id="g1055">
        <g
           id="g936"
           transform="matrix(0.28820794,0,0,0.28820794,184.70379,633.45356)">
          <circle
             style="fill:#000000;stroke-width:0.44441608"
             id="circle14"
             r="53.329929"
             cy="1840.1575"
             cx="162.63458" />
          <path
             style="fill:#c8daea;stroke-width:0.44441608"
             inkscape:connector-curvature="0"
             id="path16"
             d="m 152.85743,1864.6003 c -1.72772,0 -1.43413,-0.6523 -2.03001,-2.2974 l -5.08065,-16.721 39.10862,-23.2011" />
          <path
             style="fill:#a9c9dd;stroke-width:0.44441608"
             inkscape:connector-curvature="0"
             id="path18"
             d="m 152.85743,1864.6003 c 1.33325,0 1.92232,-0.6097 2.66649,-1.3332 l 7.11066,-6.9143 -8.86966,-5.3485" />
          <path
             style="fill:url(#w);stroke-width:0.44441608"
             inkscape:connector-curvature="0"
             id="path20"
             d="m 153.76404,1851.0056 21.49196,15.8786 c 2.45251,1.3532 4.22257,0.6526 4.83347,-2.277 l 8.74833,-41.2254 c 0.89567,-3.5909 -1.36885,-5.2196 -3.71505,-4.1545 l -51.37006,19.8081 c -3.50649,1.4065 -3.48604,3.3627 -0.63916,4.2344 l 13.18272,4.1145 30.51938,-19.2543 c 1.44075,-0.8737 2.76307,-0.4039 1.67776,0.5593" />
        </g>
        <g
           id="g1045"
           transform="matrix(0.35292209,0,0,0.35292209,209.51041,515.92243)">
          <g
             transform="matrix(0.01919346,0,0,-0.019165,119.15583,1884.7829)"
             id="g970"
             style="fill:#ffffff;stroke:none">
            <path
               sodipodi:nodetypes="ccccccccccccccccccccc"
               style="fill:#ffffff"
               d="m 1070,4592 -55,-18 c -614.4447,-229.704 29.5407,-916.7379 -162,-94 -9,0 -60,-44 -114,-98 -86,-87 -103,-111 -147,-203 -84,-172 -85,-176 -89,-571 l -5,-348 c 16.40363,-1374.4128 1372.8038,484.4477 2548.2161,-493.8475 l 246.2051,236.895 C 4191.7726,2194.8098 4608.8478,2022.0406 4632,3260 l -4,353 c -4,329 -6,357 -27,427 -42,142 -93,224 -215,346 -122,121 -203,172 -346,216 l -75,23 -1197,3 c -949.0344,4.8962 -1198,3 -1403,2 h -75 c -564.82883,-56.348 52.7641,-157.9361 -220,-38 z m 2509,-940 c -6524.765,-3659.7158014 -3262.38249,-1829.8579 0,0 z"
               id="path964"
               inkscape:connector-curvature="0" />
            <path
               sodipodi:nodetypes="cccccccccccccccc"
               style="fill:#ffffff"
               d="m 502,2153 3,-1008 23,-75 C 572,927 623,846 744,724 868,601 951,550 1096,508 l 79,-23 h 1385 1385 l 79,23 c 159,46 270,115 389,242 83,88 151,206 189,330 l 23,75 3,1003 3,1002 c -1332,100 -2829.027,17.3823 -4132,0 z"
               id="path968"
               inkscape:connector-curvature="0" />
          </g>
          <g
             style="fill:#000000;stroke:none"
             id="g6"
             transform="matrix(0.01919346,0,0,-0.019165,119.15583,1884.7829)">
            <path
               inkscape:connector-curvature="0"
               id="path10"
               d="m 1288,4123 -3,-508 -48,-3 c -27,-2 -55,2 -63,9 -12,10 -14,90 -14,500 0,555 10,502 -90,471 l -55,-18 -5,-479 -5,-480 -53,-3 c -31,-2 -60,2 -68,9 -12,10 -14,82 -14,435 0,390 -1,424 -17,424 -9,0 -60,-44 -114,-98 -86,-87 -103,-111 -147,-203 -84,-172 -85,-176 -89,-571 l -5,-348 h 671 c 369,0 671,4 671,8 0,13 119,107 191,150 87,53 188,95 295,123 131,34 340,33 475,-3 160,-43 317,-124 436,-225 l 62,-53 h 666 667 l -4,353 c -4,329 -6,357 -27,427 -42,142 -93,224 -215,346 -122,121 -203,172 -346,216 l -75,23 -1197,3 -1198,3 -2,-508 -3,-508 -48,-3 c -27,-2 -55,2 -63,9 -12,10 -14,91 -14,510 v 499 h -75 -75 z m 2872,122 c 17,-9 39,-33 50,-55 18,-36 20,-59 20,-277 0,-344 11,-333 -329,-333 -258,0 -289,7 -322,72 -19,37 -20,55 -17,289 l 3,251 37,34 38,34 h 245 c 201,0 251,-3 275,-15 z" />
            <path
               inkscape:connector-curvature="0"
               id="path12"
               d="m 2445,3353 c -352,-49 -638,-331 -695,-686 -17,-103 -8,-270 20,-367 39,-137 92,-223 210,-340 117,-118 193,-167 312,-205 468,-148 948,112 1069,580 27,104 29,300 5,395 -44,171 -98,264 -231,395 -129,129 -240,187 -413,221 -69,13 -207,17 -277,7 z m 220,-248 c 78,-16 234,-90 280,-133 81,-75 147,-183 181,-298 25,-82 22,-218 -5,-304 -76,-241 -306,-413 -551,-413 -90,0 -159,18 -260,66 -195,92 -323,297 -323,517 -1,269 194,506 464,564 84,19 129,19 214,1 z" />
            <path
               inkscape:connector-curvature="0"
               id="path14"
               d="m 502,2153 3,-1008 23,-75 C 572,927 623,846 744,724 868,601 951,550 1096,508 l 79,-23 h 1385 1385 l 79,23 c 159,46 270,115 389,242 83,88 151,206 189,330 l 23,75 3,1003 3,1002 h -616 c -536,0 -615,-2 -615,-15 0,-8 16,-40 36,-70 189,-297 208,-678 50,-994 -162,-322 -460,-529 -823,-571 -292,-34 -630,92 -840,314 -84,88 -131,158 -193,289 -73,151 -94,249 -94,427 0,117 4,162 22,234 26,105 74,219 125,299 20,32 37,64 37,72 0,13 -78,15 -610,15 H 499 Z" />
          </g>
        </g>
        <g
           id="g829"
           transform="matrix(1.0584765,0,0,1.0584765,331.92877,1147.9244)">
          <circle
             id="circle2"
             r="15"
             cy="15"
             cx="15" />
          <path
             style="fill:#ffffff"
             inkscape:connector-curvature="0"
             d="m 16.4,23.9 v -8.1 h 2.7 l 0.4,-3.2 h -3.1 v -2 c 0,-0.9 0.3,-1.5 1.6,-1.5 h 1.7 V 6.2 c -0.3,0 -1.3,-0.1 -2.4,-0.1 -2.4,0 -4.1,1.5 -4.1,4.2 v 2.3 h -2.7 v 3.2 h 2.7 v 8.1 z"
             id="f" />
        </g>
        <text
           xml:space="preserve"
           style="font-style:normal;font-weight:normal;font-size:26.12394333px;line-height:1.25;font-family:sans-serif;letter-spacing:0px;word-spacing:0px;fill:#000000;fill-opacity:1;stroke:none;stroke-width:0.65309864"
           x="371.20801"
           y="1172.7972"
           id="text962"><tspan
             sodipodi:role="line"
             id="tspan960"
             x="371.20801"
             y="1172.7972"
             style="font-style:normal;font-variant:normal;font-weight:bold;font-stretch:normal;font-family:Ubuntu;-inkscape-font-specification:Ubuntu;fill:#000000;stroke-width:0.65309864">/ <tspan
   id="tspan1095"
   style="fill:#000000;fill-opacity:1;stroke-width:0.65309864">FOSS</tspan>ersVAST</tspan></text>
        <g
           id="g1004"
           transform="matrix(0.12472134,0,0,0.12472134,191.72426,1047.9024)">
          <path
             id="path972"
             d="m 138.00542,953.88629 c -3.39334,17.45734 -30.392,36.56267 -61.400004,40.26534 -16.169333,1.92933 -32.089334,3.70267 -49.065334,2.924 -27.76266793,-1.272 -49.669335,-6.62667 -49.669335,-6.62667 0,2.70267 0.166666,5.276 0.5,7.68267 3.609333,27.39867 27.1680006,29.03997 49.484001,29.80537 22.524001,0.7706 42.580002,-5.5534 42.580002,-5.5534 l 0.925333,20.3627 c 0,0 -15.754667,8.46 -43.820001,10.016 -15.476001,0.8507 -34.6920015,-0.3893 -57.073336,-6.3133 -48.541334,-12.848 -56.889335,-64.5907 -58.166668,-117.09204 -0.389333,-15.588 -0.149333,-30.28667 -0.149333,-42.58 0,-53.68534 35.174667,-69.42134 35.174667,-69.42134 17.736001,-8.14533 48.1693353,-11.57066 79.808003,-11.82933 h 0.777333 c 31.638668,0.25867 62.092002,3.684 79.826672,11.82933 0,0 35.17333,15.736 35.17333,69.42134 0,0 0.44134,39.60933 -4.90533,67.10933"
             inkscape:connector-curvature="0"
             style="fill:#2b90d9;stroke-width:1.06666672" />
          <path
             id="path974"
             d="m 101.42142,890.94176 v 65.004 H 75.668083 v -63.09333 c 0,-13.3 -5.596,-20.05067 -16.789334,-20.05067 -12.376,0 -18.578667,8.008 -18.578667,23.84267 v 34.53466 H 14.698748 v -34.53466 c 0,-15.83467 -6.2040003,-23.84267 -18.5800007,-23.84267 -11.1933333,0 -16.7893343,6.75067 -16.7893343,20.05067 v 63.09333 h -25.753334 v -65.004 c 0,-13.28533 3.382667,-23.84267 10.177334,-31.65333 7.006667,-7.81067 16.182667,-11.81467 27.5733341,-11.81467 13.1786671,0 23.1586679,5.06533 29.7573339,15.19733 l 6.414667,10.75334 6.416,-10.75334 c 6.597334,-10.132 16.577334,-15.19733 29.757335,-15.19733 11.389333,0 20.565334,4.004 27.573334,11.81467 6.793333,7.81066 10.176003,18.368 10.176003,31.65333"
             inkscape:connector-curvature="0"
             style="fill:#ffffff;stroke-width:1.06666672" />
          <path
             transform="translate(0,1020)"
             inkscape:connector-curvature="0"
             id="path999"
             d="M -6.8714587,30.755085 C -35.05316,26.34856 -48.127811,20.730149 -60.403811,7.7512588 -74.270558,-6.909469 -81.31192,-25.886934 -85.55544,-60.035965 c -1.632572,-13.137848 -2.413247,-76.008005 -1.075756,-86.633925 3.439718,-27.3274 18.134427,-49.46288 38.008546,-57.25444 35.975995,-14.10421 126.58148,-13.07211 156.38325,1.78139 6.26955,3.1248 13.45849,9.39065 18.64999,16.25522 12.52269,16.55842 17.14856,35.60599 16.06283,66.14052 -1.11932,31.479219 -3.64318,52.638721 -7.12826,59.761981 -6.33366,12.945531 -25.52393,25.941627 -46.262322,31.329914 -8.301041,2.156786 -23.818146,4.091124 -40.957102,5.105626 -18.236646,1.079485 -42.9241163,-0.799007 -62.351167,-4.744349 -4.044685,-0.821415 -7.542862,-1.49348 -7.773726,-1.49348 -0.781289,0 0.490826,11.365578 1.725881,15.419712 C -17.640413,-5.7252773 -9.6834102,1.6724739 0.29441647,4.7543124 8.7810414,7.3755573 17.805735,8.1471915 34.736158,7.6991451 47.621129,7.3581625 52.250714,6.9075626 60.211236,5.2196437 c 5.350669,-1.1345293 9.817509,-1.9622528 9.92631,-1.839389 0.1088,0.1228637 0.346183,4.5460916 0.527517,9.8293893 l 0.329685,9.605998 -6.720461,2.461258 C 50.810597,30.20776 41.555983,31.635095 21.019976,31.947966 5.8184368,32.179575 0.89102604,31.968865 -6.8714587,30.755085 Z M -20.620757,-96.069742 c 0,-18.119258 0.343493,-34.309478 0.776337,-36.591858 1.143098,-6.02753 3.009806,-9.3609 6.556563,-11.70804 2.778415,-1.83866 3.9385154,-2.09049 9.6304579,-2.09049 5.9259006,0 6.755109,0.19933 9.8353761,2.36421 7.025027,4.93738 8.494356,11.53194 8.532343,38.29443 l 0.02426,17.088416 h 12.899733 12.899734 l 0.277107,-22.195296 c 0.302202,-24.20536 0.573636,-25.81133 5.195656,-30.74037 6.629786,-7.07017 20.023567,-6.85677 25.506787,0.4064 3.515719,4.65698 3.708877,6.90909 3.713513,43.297594 l 0.0044,34.373247 h 13.410256 13.410254 l -0.29918,-37.908781 c -0.25816,-32.71162 -0.48179,-38.53653 -1.63113,-42.4877 -4.403651,-15.13877 -14.330755,-25.08773 -27.875149,-27.93653 -17.584481,-3.69855 -32.104581,2.96744 -41.432734,19.02124 -3.556511,6.12078 -2.546629,6.53431 -9.249632,-3.78756 -4.542501,-6.99492 -9.449477,-11.19684 -16.2576895,-13.92167 -3.6130093,-1.44603 -5.86637002,-1.72947 -13.7492986,-1.72947 -7.9585839,0 -10.1291389,0.27807 -13.9258919,1.78409 -10.286181,4.08012 -17.622573,11.91621 -21.726559,23.2064 l -2.030294,5.5854 -0.251806,39.08729 -0.251804,39.087291 h 13.004202 13.004203 z"
             style="opacity:1;fill:#000000;fill-opacity:1;stroke:none;stroke-width:0.78567421" />
        </g>
        <path
           style="fill:#000000;stroke-width:0.12109209"
           inkscape:connector-curvature="0"
           d="m 302.24055,1178.4652 c 13.61801,0 21.06517,-11.282 21.06517,-21.0652 0,-0.3205 -0.006,-0.6393 -0.0209,-0.9569 1.44561,-1.0451 2.70205,-2.3493 3.69307,-3.8339 -1.32656,0.5897 -2.75412,0.9866 -4.25167,1.1656 1.52854,-0.9165 2.70205,-2.3665 3.25569,-4.0951 -1.43047,0.8482 -3.01459,1.4645 -4.70129,1.7972 -1.35103,-1.4389 -3.27445,-2.339 -5.40422,-2.339 -4.08854,0 -7.40404,3.3155 -7.40404,7.4026 0,0.5809 0.0649,1.146 0.19197,1.688 -6.1533,-0.3096 -11.60957,-3.2556 -15.26123,-7.7352 -0.63584,1.094 -1.00246,2.365 -1.00246,3.721 0,2.5687 1.30706,4.8363 3.29468,6.1628 -1.21468,-0.038 -2.35574,-0.3709 -3.35304,-0.926 -0.001,0.03 -0.001,0.062 -0.001,0.094 0,3.5855 2.55202,6.5791 5.93969,7.2576 -0.62212,0.1696 -1.27668,0.2605 -1.95225,0.2605 -0.47632,0 -0.9404,-0.048 -1.39146,-0.1335 0.94255,2.9417 3.67575,5.0824 6.91617,5.1422 -2.53398,1.9861 -5.72609,3.169 -9.19537,3.169 -0.59687,0 -1.1865,-0.035 -1.76601,-0.1023 3.27664,2.1001 7.16731,3.3257 11.34899,3.3257"
           id="path968-6" />
      </g>
    </g>
  </g>
</svg>
